TB_vgadriver.vcd
$date
	Sun Apr 09 18:44:03 2017
$end
$version
	Icarus Verilog
$end
$timescale
	10ns
$end
$scope module TB_vgadriver $end
$var wire 1 ! VGA_VS $end
$var wire 1 " VGA_R $end
$var wire 1 # VGA_HS $end
$var wire 1 $ VGA_G $end
$var wire 1 % VGA_B $end
$var reg 1 & East $end
$var reg 1 ' North $end
$var reg 1 ( SW0 $end
$var reg 1 ) SW1 $end
$var reg 1 * SW2 $end
$var reg 1 + SW3 $end
$var reg 1 , South $end
$var reg 1 - West $end
$var reg 1 . change_button $end
$var reg 1 / clk_50 $end
$scope module UUT $end
$var wire 1 & East $end
$var wire 1 ' North $end
$var wire 1 ( SW0 $end
$var wire 1 ) SW1 $end
$var wire 1 * SW2 $end
$var wire 1 + SW3 $end
$var wire 1 , South $end
$var wire 1 - West $end
$var wire 3 0 func3_color_out [2:0] $end
$var wire 1 . func_switch $end
$var wire 1 / sysclk $end
$var wire 3 1 vram_index_in [2:0] $end
$var wire 3 2 vram_color_out [2:0] $end
$var wire 8 3 vram_addr_in [7:0] $end
$var wire 3 4 vga_color [2:0] $end
$var wire 22 5 vga_addr [21:0] $end
$var wire 5 6 func3_keys [4:0] $end
$var wire 22 7 func3_addr_in [21:0] $end
$var wire 4 8 func2_mapper_y_out [3:0] $end
$var wire 4 9 func2_mapper_x_out [3:0] $end
$var wire 22 : func2_mapper_addr_in [21:0] $end
$var wire 4 ; func2_keys [3:0] $end
$var wire 3 < func2_instruction [2:0] $end
$var wire 3 = func2_color_out [2:0] $end
$var wire 22 > func2_addr_in [21:0] $end
$var wire 1 ? func1_write $end
$var wire 4 @ func1_keys [3:0] $end
$var wire 3 A func1_color_out [2:0] $end
$var wire 3 B func1_color [2:0] $end
$var wire 1 C bus_reset $end
$var wire 2 D bus_current_function [1:0] $end
$var wire 1 ! VGA_VS $end
$var wire 1 " VGA_R $end
$var wire 1 # VGA_HS $end
$var wire 1 $ VGA_G $end
$var wire 1 % VGA_B $end
$scope module func1_keyproc $end
$var wire 1 / sysclk $end
$var wire 4 E func1_keys [3:0] $end
$var reg 3 F color [2:0] $end
$var reg 1 ? write $end
$upscope $end
$scope module func1_vram $end
$var wire 1 ? write $end
$var wire 3 G write_color [2:0] $end
$var reg 3 H color [2:0] $end
$var reg 3 I read_color [2:0] $end
$upscope $end
$scope module func2_gpu $end
$var wire 1 / sysclk $end
$var wire 3 J pixel_data [2:0] $end
$var wire 4 K mapper_pixel_y [3:0] $end
$var wire 4 L mapper_pixel_x [3:0] $end
$var wire 3 M instruction [2:0] $end
$var wire 22 N display_addr [21:0] $end
$var reg 8 O anime_pixel_index [7:0] $end
$var reg 3 P command [2:0] $end
$var reg 3 Q current_image [2:0] $end
$var reg 4 R delay_counter [3:0] $end
$var reg 3 S display_data [2:0] $end
$var reg 11 T display_x [10:0] $end
$var reg 11 U display_y [10:0] $end
$var reg 1 V done_flag $end
$var reg 3 W image_index [2:0] $end
$var reg 22 X mapper_display_addr [21:0] $end
$var reg 1 Y negative $end
$var reg 8 Z pixel_addr [7:0] $end
$var reg 4 [ pixel_x [3:0] $end
$var reg 4 \ pixel_y [3:0] $end
$var reg 1 ] state $end
$var reg 2 ^ trans_mode [1:0] $end
$upscope $end
$scope module func2_img_mapper $end
$var wire 22 _ display_addr [21:0] $end
$var reg 11 ` display_x [10:0] $end
$var reg 11 a display_y [10:0] $end
$var reg 4 b pixel_x [3:0] $end
$var reg 4 c pixel_y [3:0] $end
$upscope $end
$scope module func2_keyproc $end
$var wire 1 / sysclk $end
$var wire 4 d func2_keys [3:0] $end
$var reg 3 e instruction [2:0] $end
$upscope $end
$scope module image_rom $end
$var wire 3 f image_index [2:0] $end
$var wire 8 g pixel_addr [7:0] $end
$var reg 3 h current_image [2:0] $end
$var reg 3 i pixel_data [2:0] $end
$upscope $end
$scope module keyboard_processor $end
$var wire 1 & East $end
$var wire 1 ' North $end
$var wire 1 ( SW0 $end
$var wire 1 ) SW1 $end
$var wire 1 * SW2 $end
$var wire 1 + SW3 $end
$var wire 1 , South $end
$var wire 1 - West $end
$var wire 1 . change $end
$var wire 1 / sysclk $end
$var reg 2 j current_function [1:0] $end
$var reg 3 k deb_East [2:0] $end
$var reg 3 l deb_North [2:0] $end
$var reg 3 m deb_South [2:0] $end
$var reg 3 n deb_West [2:0] $end
$var reg 3 o deb_change [2:0] $end
$var reg 1 p dff_East $end
$var reg 1 q dff_North $end
$var reg 1 r dff_South $end
$var reg 1 s dff_West $end
$var reg 1 t dff_change $end
$var reg 4 u func1_instruction [3:0] $end
$var reg 4 v func2_instruction [3:0] $end
$var reg 5 w func3_instruction [4:0] $end
$var reg 2 x func_index [1:0] $end
$var reg 1 C reset $end
$upscope $end
$scope module switcher $end
$var wire 2 y current_function [1:0] $end
$var wire 3 z func1_color [2:0] $end
$var wire 3 { func2_color [2:0] $end
$var wire 3 | func3_color [2:0] $end
$var wire 22 } display_addr [21:0] $end
$var reg 3 ~ display_color [2:0] $end
$var reg 22 !" func2_addr [21:0] $end
$var reg 22 "" func3_addr [21:0] $end
$upscope $end
$scope module vgaport $end
$var wire 1 % VGA_B $end
$var wire 1 $ VGA_G $end
$var wire 1 # VGA_HS $end
$var wire 1 " VGA_R $end
$var wire 1 ! VGA_VS $end
$var wire 1 #" pclk $end
$var wire 3 $" pixel_data [2:0] $end
$var wire 1 C rst $end
$var wire 1 / sysclk $end
$var reg 1 %" count $end
$var reg 22 &" pixel_addr [21:0] $end
$var reg 3 '" pixel_rgb [2:0] $end
$var reg 11 (" x_counter [10:0] $end
$var reg 11 )" y_counter [10:0] $end
$upscope $end
$upscope $end
$upscope $end
$enddefinitions $end
#0
$dumpvars
b0 )"
b0 ("
b0 '"
bx &"
0%"
b0 $"
0#"
bx ""
bx !"
b0 ~
bx }
bz |
bx {
b0 z
b0 y
b0 x
b0 w
b0 v
b0 u
xt
xs
xr
xq
xp
b0 o
b0 n
b0 m
b0 l
b0 k
b0 j
bx i
b0 h
bx g
b0 f
b0 e
b0 d
bx c
bx b
bx a
bx `
bx _
b0 ^
0]
bx \
bx [
bx Z
0Y
bx X
b0 W
0V
bx U
bx T
bx S
b1111 R
b0 Q
b0 P
b0 O
bx N
b0 M
bx L
bx K
bx J
b0 I
b0 H
bx G
bx F
b0 E
b0 D
0C
bx B
b0 A
b0 @
x?
bx >
bx =
b0 <
b0 ;
bx :
bx 9
bx 8
bx 7
b0 6
bx 5
b0 4
bx 3
bx 2
b0 1
bz 0
0/
0.
0-
0,
0+
0*
0)
0(
0'
0&
0%
0$
1#
0"
1!
$end
#1
b1 ("
b0 5
b0 }
b0 &"
0t
0r
0q
0s
0p
0?
1#"
1%"
1/
#2
0/
#3
0#"
0%"
1/
#4
0/
#5
b10 ("
b100000000000 5
b100000000000 }
b100000000000 &"
1#"
1%"
1/
#6
0/
#7
0#"
0%"
1/
#8
0/
#9
b11 ("
b1000000000000 5
b1000000000000 }
b1000000000000 &"
1#"
1%"
1/
#10
0/
1.
#11
b1 o
0#"
0%"
1/
#12
0/
#13
b100 ("
b1100000000000 5
b1100000000000 }
b1100000000000 &"
b11 o
1#"
1%"
1/
#14
0/
#15
b111 o
b1 l
0#"
0%"
1/
1'
#16
0/
#17
b0 =
b0 S
b0 {
b0 U
b100 T
b0 4
b0 ~
b0 $"
b10000000000000 >
b10000000000000 N
b10000000000000 !"
b1 D
b1 x
b1 y
b1 j
b101 ("
b10000000000000 5
b10000000000000 }
b10000000000000 &"
1t
b11 l
1#"
1%"
1/
#18
0/
#19
b111 l
0#"
0%"
1/
#20
0/
1,
#21
b101 T
b10100000000000 >
b10100000000000 N
b10100000000000 !"
b110 ("
b10100000000000 5
b10100000000000 }
b10100000000000 &"
b11 <
b11 M
b11 e
b10 ;
b10 d
b10 v
1q
b1 m
1#"
1%"
1/
#22
0/
0,
#23
1V
b1 ^
b11 P
b10 m
0#"
0%"
1/
#24
0/
#25
b110 T
b11000000000000 >
b11000000000000 N
b11000000000000 !"
b111 ("
b11000000000000 5
b11000000000000 }
b11000000000000 &"
b100 m
1#"
1%"
1/
#26
0/
#27
b0 m
0#"
0%"
1/
#28
0/
#29
b111 T
0#
b11100000000000 >
b11100000000000 N
b11100000000000 !"
b1000 ("
b11100000000000 5
b11100000000000 }
b11100000000000 &"
1#"
1%"
1/
#30
0/
#31
0#"
0%"
1/
#32
0/
#33
b1000 T
b100000000000000 >
b100000000000000 N
b100000000000000 !"
b1001 ("
b100000000000000 5
b100000000000000 }
b100000000000000 &"
1#"
1%"
1/
#34
0/
#35
0#"
0%"
1/
#36
0/
#37
b1001 T
b100100000000000 >
b100100000000000 N
b100100000000000 !"
b1010 ("
b100100000000000 5
b100100000000000 }
b100100000000000 &"
1#"
1%"
1/
#38
0/
#39
0#"
0%"
1/
#40
0/
#41
b1010 T
b101000000000000 >
b101000000000000 N
b101000000000000 !"
b1011 ("
b101000000000000 5
b101000000000000 }
b101000000000000 &"
1#"
1%"
1/
#42
0/
#43
0#"
0%"
1/
#44
0/
#45
b1011 T
b101100000000000 >
b101100000000000 N
b101100000000000 !"
b1100 ("
b101100000000000 5
b101100000000000 }
b101100000000000 &"
1#"
1%"
1/
#46
0/
#47
0#"
0%"
1/
#48
0/
#49
b1100 T
b110000000000000 >
b110000000000000 N
b110000000000000 !"
b1101 ("
b110000000000000 5
b110000000000000 }
b110000000000000 &"
1#"
1%"
1/
#50
0/
#51
0#"
0%"
1/
#52
0/
#53
b1101 T
b110100000000000 >
b110100000000000 N
b110100000000000 !"
b1110 ("
b110100000000000 5
b110100000000000 }
b110100000000000 &"
1#"
1%"
1/
#54
0/
#55
0#"
0%"
1/
#56
0/
#57
b1110 T
b111000000000000 >
b111000000000000 N
b111000000000000 !"
b1111 ("
b111000000000000 5
b111000000000000 }
b111000000000000 &"
1#"
1%"
1/
#58
0/
#59
0#"
0%"
1/
#60
0/
#61
b1111 T
b111100000000000 >
b111100000000000 N
b111100000000000 !"
b10000 ("
b111100000000000 5
b111100000000000 }
b111100000000000 &"
1#"
1%"
1/
#62
0/
#63
0#"
0%"
1/
#64
0/
#65
b10000 T
b1000000000000000 >
b1000000000000000 N
b1000000000000000 !"
b10001 ("
b1000000000000000 5
b1000000000000000 }
b1000000000000000 &"
1#"
1%"
1/
#66
0/
#67
0#"
0%"
1/
#68
0/
#69
b10001 T
b1000100000000000 >
b1000100000000000 N
b1000100000000000 !"
b10010 ("
b1000100000000000 5
b1000100000000000 }
b1000100000000000 &"
1#"
1%"
1/
#70
0/
#71
0#"
0%"
1/
#72
0/
#73
b10010 T
b1001000000000000 >
b1001000000000000 N
b1001000000000000 !"
b10011 ("
b1001000000000000 5
b1001000000000000 }
b1001000000000000 &"
1#"
1%"
1/
#74
0/
#75
0#"
0%"
1/
#76
0/
#77
b10011 T
b1001100000000000 >
b1001100000000000 N
b1001100000000000 !"
b10100 ("
b1001100000000000 5
b1001100000000000 }
b1001100000000000 &"
1#"
1%"
1/
#78
0/
#79
0#"
0%"
1/
#80
0/
#81
b10100 T
b1010000000000000 >
b1010000000000000 N
b1010000000000000 !"
b10101 ("
b1010000000000000 5
b1010000000000000 }
b1010000000000000 &"
1#"
1%"
1/
#82
0/
#83
0#"
0%"
1/
#84
0/
#85
b10101 T
b1010100000000000 >
b1010100000000000 N
b1010100000000000 !"
b10110 ("
b1010100000000000 5
b1010100000000000 }
b1010100000000000 &"
1#"
1%"
1/
#86
0/
#87
0#"
0%"
1/
#88
0/
#89
b10110 T
b1011000000000000 >
b1011000000000000 N
b1011000000000000 !"
b10111 ("
b1011000000000000 5
b1011000000000000 }
b1011000000000000 &"
1#"
1%"
1/
#90
0/
#91
0#"
0%"
1/
#92
0/
#93
b10111 T
b1011100000000000 >
b1011100000000000 N
b1011100000000000 !"
b11000 ("
b1011100000000000 5
b1011100000000000 }
b1011100000000000 &"
1#"
1%"
1/
#94
0/
#95
0#"
0%"
1/
#96
0/
#97
b11000 T
b1100000000000000 >
b1100000000000000 N
b1100000000000000 !"
b11001 ("
b1100000000000000 5
b1100000000000000 }
b1100000000000000 &"
1#"
1%"
1/
#98
0/
#99
0#"
0%"
1/
#100
0/
#101
b11001 T
b1100100000000000 >
b1100100000000000 N
b1100100000000000 !"
b11010 ("
b1100100000000000 5
b1100100000000000 }
b1100100000000000 &"
1#"
1%"
1/
#102
0/
#103
0#"
0%"
1/
#104
0/
#105
b11010 T
b1101000000000000 >
b1101000000000000 N
b1101000000000000 !"
b11011 ("
b1101000000000000 5
b1101000000000000 }
b1101000000000000 &"
1#"
1%"
1/
#106
0/
#107
0#"
0%"
1/
#108
0/
#109
b11011 T
b1101100000000000 >
b1101100000000000 N
b1101100000000000 !"
b11100 ("
b1101100000000000 5
b1101100000000000 }
b1101100000000000 &"
1#"
1%"
1/
#110
0/
#111
0#"
0%"
1/
#112
0/
#113
b11100 T
b1110000000000000 >
b1110000000000000 N
b1110000000000000 !"
b11101 ("
b1110000000000000 5
b1110000000000000 }
b1110000000000000 &"
1#"
1%"
1/
#114
0/
#115
0#"
0%"
1/
#116
0/
#117
b11101 T
b1110100000000000 >
b1110100000000000 N
b1110100000000000 !"
b11110 ("
b1110100000000000 5
b1110100000000000 }
b1110100000000000 &"
1#"
1%"
1/
#118
0/
#119
0#"
0%"
1/
#120
0/
#121
b11110 T
b1111000000000000 >
b1111000000000000 N
b1111000000000000 !"
b11111 ("
b1111000000000000 5
b1111000000000000 }
b1111000000000000 &"
1#"
1%"
1/
#122
0/
#123
0#"
0%"
1/
#124
0/
#125
b11111 T
b1111100000000000 >
b1111100000000000 N
b1111100000000000 !"
b100000 ("
b1111100000000000 5
b1111100000000000 }
b1111100000000000 &"
1#"
1%"
1/
#126
0/
#127
0#"
0%"
1/
#128
0/
#129
b100000 T
b10000000000000000 >
b10000000000000000 N
b10000000000000000 !"
b100001 ("
b10000000000000000 5
b10000000000000000 }
b10000000000000000 &"
1#"
1%"
1/
#130
0/
#131
0#"
0%"
1/
#132
0/
#133
b100001 T
b10000100000000000 >
b10000100000000000 N
b10000100000000000 !"
b100010 ("
b10000100000000000 5
b10000100000000000 }
b10000100000000000 &"
1#"
1%"
1/
#134
0/
#135
0#"
0%"
1/
#136
0/
#137
b100010 T
b10001000000000000 >
b10001000000000000 N
b10001000000000000 !"
b100011 ("
b10001000000000000 5
b10001000000000000 }
b10001000000000000 &"
1#"
1%"
1/
#138
0/
#139
0#"
0%"
1/
#140
0/
#141
b100011 T
b10001100000000000 >
b10001100000000000 N
b10001100000000000 !"
b100100 ("
b10001100000000000 5
b10001100000000000 }
b10001100000000000 &"
1#"
1%"
1/
#142
0/
#143
0#"
0%"
1/
#144
0/
#145
b100100 T
b10010000000000000 >
b10010000000000000 N
b10010000000000000 !"
b100101 ("
b10010000000000000 5
b10010000000000000 }
b10010000000000000 &"
1#"
1%"
1/
#146
0/
#147
0#"
0%"
1/
#148
0/
#149
b100101 T
b10010100000000000 >
b10010100000000000 N
b10010100000000000 !"
b100110 ("
b10010100000000000 5
b10010100000000000 }
b10010100000000000 &"
1#"
1%"
1/
#150
0/
#151
0#"
0%"
1/
#152
0/
#153
b100110 T
b10011000000000000 >
b10011000000000000 N
b10011000000000000 !"
b100111 ("
b10011000000000000 5
b10011000000000000 }
b10011000000000000 &"
1#"
1%"
1/
#154
0/
#155
0#"
0%"
1/
#156
0/
#157
b100111 T
b10011100000000000 >
b10011100000000000 N
b10011100000000000 !"
b101000 ("
b10011100000000000 5
b10011100000000000 }
b10011100000000000 &"
1#"
1%"
1/
#158
0/
#159
0#"
0%"
1/
#160
0/
#161
b101000 T
b10100000000000000 >
b10100000000000000 N
b10100000000000000 !"
b101001 ("
b10100000000000000 5
b10100000000000000 }
b10100000000000000 &"
1#"
1%"
1/
#162
0/
#163
0#"
0%"
1/
#164
0/
#165
b101001 T
b10100100000000000 >
b10100100000000000 N
b10100100000000000 !"
b101010 ("
b10100100000000000 5
b10100100000000000 }
b10100100000000000 &"
1#"
1%"
1/
#166
0/
#167
0#"
0%"
1/
#168
0/
#169
b101010 T
b10101000000000000 >
b10101000000000000 N
b10101000000000000 !"
b101011 ("
b10101000000000000 5
b10101000000000000 }
b10101000000000000 &"
1#"
1%"
1/
#170
0/
#171
0#"
0%"
1/
#172
0/
#173
b101011 T
b10101100000000000 >
b10101100000000000 N
b10101100000000000 !"
b101100 ("
b10101100000000000 5
b10101100000000000 }
b10101100000000000 &"
1#"
1%"
1/
#174
0/
#175
0#"
0%"
1/
#176
0/
#177
b101100 T
b10110000000000000 >
b10110000000000000 N
b10110000000000000 !"
b101101 ("
b10110000000000000 5
b10110000000000000 }
b10110000000000000 &"
1#"
1%"
1/
#178
0/
#179
0#"
0%"
1/
#180
0/
#181
b101101 T
b10110100000000000 >
b10110100000000000 N
b10110100000000000 !"
b101110 ("
b10110100000000000 5
b10110100000000000 }
b10110100000000000 &"
1#"
1%"
1/
#182
0/
#183
0#"
0%"
1/
#184
0/
#185
b101110 T
b10111000000000000 >
b10111000000000000 N
b10111000000000000 !"
b101111 ("
b10111000000000000 5
b10111000000000000 }
b10111000000000000 &"
1#"
1%"
1/
#186
0/
#187
0#"
0%"
1/
#188
0/
#189
b101111 T
b10111100000000000 >
b10111100000000000 N
b10111100000000000 !"
b110000 ("
b10111100000000000 5
b10111100000000000 }
b10111100000000000 &"
1#"
1%"
1/
#190
0/
#191
0#"
0%"
1/
#192
0/
#193
b110000 T
b11000000000000000 >
b11000000000000000 N
b11000000000000000 !"
b110001 ("
b11000000000000000 5
b11000000000000000 }
b11000000000000000 &"
1#"
1%"
1/
#194
0/
#195
0#"
0%"
1/
#196
0/
#197
b110001 T
b11000100000000000 >
b11000100000000000 N
b11000100000000000 !"
b110010 ("
b11000100000000000 5
b11000100000000000 }
b11000100000000000 &"
1#"
1%"
1/
#198
0/
#199
0#"
0%"
1/
#200
0/
#201
b110010 T
b11001000000000000 >
b11001000000000000 N
b11001000000000000 !"
b110011 ("
b11001000000000000 5
b11001000000000000 }
b11001000000000000 &"
1#"
1%"
1/
#202
0/
#203
0#"
0%"
1/
#204
0/
#205
b110011 T
b11001100000000000 >
b11001100000000000 N
b11001100000000000 !"
b110100 ("
b11001100000000000 5
b11001100000000000 }
b11001100000000000 &"
1#"
1%"
1/
#206
0/
#207
0#"
0%"
1/
#208
0/
#209
b110100 T
b11010000000000000 >
b11010000000000000 N
b11010000000000000 !"
b110101 ("
b11010000000000000 5
b11010000000000000 }
b11010000000000000 &"
1#"
1%"
1/
#210
0/
#211
0#"
0%"
1/
#212
0/
#213
b110101 T
b11010100000000000 >
b11010100000000000 N
b11010100000000000 !"
b110110 ("
b11010100000000000 5
b11010100000000000 }
b11010100000000000 &"
1#"
1%"
1/
#214
0/
#215
0#"
0%"
1/
#216
0/
#217
b110110 T
b11011000000000000 >
b11011000000000000 N
b11011000000000000 !"
b110111 ("
b11011000000000000 5
b11011000000000000 }
b11011000000000000 &"
1#"
1%"
1/
#218
0/
#219
0#"
0%"
1/
#220
0/
#221
b110111 T
b11011100000000000 >
b11011100000000000 N
b11011100000000000 !"
b111000 ("
b11011100000000000 5
b11011100000000000 }
b11011100000000000 &"
1#"
1%"
1/
#222
0/
#223
0#"
0%"
1/
#224
0/
#225
b111000 T
b11100000000000000 >
b11100000000000000 N
b11100000000000000 !"
b111001 ("
b11100000000000000 5
b11100000000000000 }
b11100000000000000 &"
1#"
1%"
1/
#226
0/
#227
0#"
0%"
1/
#228
0/
#229
b111001 T
b11100100000000000 >
b11100100000000000 N
b11100100000000000 !"
b111010 ("
b11100100000000000 5
b11100100000000000 }
b11100100000000000 &"
1#"
1%"
1/
#230
0/
#231
0#"
0%"
1/
#232
0/
#233
b111010 T
b11101000000000000 >
b11101000000000000 N
b11101000000000000 !"
b111011 ("
b11101000000000000 5
b11101000000000000 }
b11101000000000000 &"
1#"
1%"
1/
#234
0/
#235
0#"
0%"
1/
#236
0/
#237
b111011 T
b11101100000000000 >
b11101100000000000 N
b11101100000000000 !"
b111100 ("
b11101100000000000 5
b11101100000000000 }
b11101100000000000 &"
1#"
1%"
1/
#238
0/
#239
0#"
0%"
1/
#240
0/
#241
b111100 T
b11110000000000000 >
b11110000000000000 N
b11110000000000000 !"
b111101 ("
b11110000000000000 5
b11110000000000000 }
b11110000000000000 &"
1#"
1%"
1/
#242
0/
#243
0#"
0%"
1/
#244
0/
#245
b111101 T
b11110100000000000 >
b11110100000000000 N
b11110100000000000 !"
b111110 ("
b11110100000000000 5
b11110100000000000 }
b11110100000000000 &"
1#"
1%"
1/
#246
0/
#247
0#"
0%"
1/
#248
0/
#249
b111110 T
b11111000000000000 >
b11111000000000000 N
b11111000000000000 !"
b111111 ("
b11111000000000000 5
b11111000000000000 }
b11111000000000000 &"
1#"
1%"
1/
#250
0/
#251
0#"
0%"
1/
#252
0/
#253
b111111 T
b11111100000000000 >
b11111100000000000 N
b11111100000000000 !"
b1000000 ("
b11111100000000000 5
b11111100000000000 }
b11111100000000000 &"
1#"
1%"
1/
#254
0/
#255
0#"
0%"
1/
#256
0/
#257
b1000000 T
b100000000000000000 >
b100000000000000000 N
b100000000000000000 !"
b1000001 ("
b100000000000000000 5
b100000000000000000 }
b100000000000000000 &"
1#"
1%"
1/
#258
0/
#259
0#"
0%"
1/
#260
0/
#261
b1000001 T
b100000100000000000 >
b100000100000000000 N
b100000100000000000 !"
b1000010 ("
b100000100000000000 5
b100000100000000000 }
b100000100000000000 &"
1#"
1%"
1/
#262
0/
#263
0#"
0%"
1/
#264
0/
#265
b1000010 T
b100001000000000000 >
b100001000000000000 N
b100001000000000000 !"
b1000011 ("
b100001000000000000 5
b100001000000000000 }
b100001000000000000 &"
1#"
1%"
1/
#266
0/
#267
0#"
0%"
1/
#268
0/
#269
b1000011 T
b100001100000000000 >
b100001100000000000 N
b100001100000000000 !"
b1000100 ("
b100001100000000000 5
b100001100000000000 }
b100001100000000000 &"
1#"
1%"
1/
#270
0/
#271
0#"
0%"
1/
#272
0/
#273
b1000100 T
b100010000000000000 >
b100010000000000000 N
b100010000000000000 !"
b1000101 ("
b100010000000000000 5
b100010000000000000 }
b100010000000000000 &"
1#"
1%"
1/
#274
0/
#275
0#"
0%"
1/
#276
0/
#277
b1000101 T
b100010100000000000 >
b100010100000000000 N
b100010100000000000 !"
b1000110 ("
b100010100000000000 5
b100010100000000000 }
b100010100000000000 &"
1#"
1%"
1/
#278
0/
#279
0#"
0%"
1/
#280
0/
#281
b1000110 T
b100011000000000000 >
b100011000000000000 N
b100011000000000000 !"
b1000111 ("
b100011000000000000 5
b100011000000000000 }
b100011000000000000 &"
1#"
1%"
1/
#282
0/
#283
0#"
0%"
1/
#284
0/
#285
b1000111 T
b100011100000000000 >
b100011100000000000 N
b100011100000000000 !"
b1001000 ("
b100011100000000000 5
b100011100000000000 }
b100011100000000000 &"
1#"
1%"
1/
#286
0/
#287
0#"
0%"
1/
#288
0/
#289
b1001000 T
b100100000000000000 >
b100100000000000000 N
b100100000000000000 !"
b1001001 ("
b100100000000000000 5
b100100000000000000 }
b100100000000000000 &"
1#"
1%"
1/
#290
0/
#291
0#"
0%"
1/
#292
0/
#293
b1001001 T
b100100100000000000 >
b100100100000000000 N
b100100100000000000 !"
b1001010 ("
b100100100000000000 5
b100100100000000000 }
b100100100000000000 &"
1#"
1%"
1/
#294
0/
#295
0#"
0%"
1/
#296
0/
#297
b1001010 T
b100101000000000000 >
b100101000000000000 N
b100101000000000000 !"
b1001011 ("
b100101000000000000 5
b100101000000000000 }
b100101000000000000 &"
1#"
1%"
1/
#298
0/
#299
0#"
0%"
1/
#300
0/
#301
b1001011 T
b100101100000000000 >
b100101100000000000 N
b100101100000000000 !"
b1001100 ("
b100101100000000000 5
b100101100000000000 }
b100101100000000000 &"
1#"
1%"
1/
#302
0/
#303
0#"
0%"
1/
#304
0/
#305
b1001100 T
b100110000000000000 >
b100110000000000000 N
b100110000000000000 !"
b1001101 ("
b100110000000000000 5
b100110000000000000 }
b100110000000000000 &"
1#"
1%"
1/
#306
0/
#307
0#"
0%"
1/
#308
0/
#309
b1001101 T
b100110100000000000 >
b100110100000000000 N
b100110100000000000 !"
b1001110 ("
b100110100000000000 5
b100110100000000000 }
b100110100000000000 &"
1#"
1%"
1/
#310
0/
#311
0#"
0%"
1/
#312
0/
#313
b1001110 T
b100111000000000000 >
b100111000000000000 N
b100111000000000000 !"
b1001111 ("
b100111000000000000 5
b100111000000000000 }
b100111000000000000 &"
1#"
1%"
1/
#314
0/
#315
0#"
0%"
1/
#316
0/
#317
b1001111 T
b100111100000000000 >
b100111100000000000 N
b100111100000000000 !"
b1010000 ("
b100111100000000000 5
b100111100000000000 }
b100111100000000000 &"
1#"
1%"
1/
#318
0/
#319
0#"
0%"
1/
#320
0/
#321
b1010000 T
b101000000000000000 >
b101000000000000000 N
b101000000000000000 !"
b1010001 ("
b101000000000000000 5
b101000000000000000 }
b101000000000000000 &"
1#"
1%"
1/
#322
0/
#323
0#"
0%"
1/
#324
0/
#325
b1010001 T
b101000100000000000 >
b101000100000000000 N
b101000100000000000 !"
b1010010 ("
b101000100000000000 5
b101000100000000000 }
b101000100000000000 &"
1#"
1%"
1/
#326
0/
#327
0#"
0%"
1/
#328
0/
#329
b1010010 T
b101001000000000000 >
b101001000000000000 N
b101001000000000000 !"
b1010011 ("
b101001000000000000 5
b101001000000000000 }
b101001000000000000 &"
1#"
1%"
1/
#330
0/
#331
0#"
0%"
1/
#332
0/
#333
b1010011 T
b101001100000000000 >
b101001100000000000 N
b101001100000000000 !"
b1010100 ("
b101001100000000000 5
b101001100000000000 }
b101001100000000000 &"
1#"
1%"
1/
#334
0/
#335
0#"
0%"
1/
#336
0/
#337
b1010100 T
b101010000000000000 >
b101010000000000000 N
b101010000000000000 !"
b1010101 ("
b101010000000000000 5
b101010000000000000 }
b101010000000000000 &"
1#"
1%"
1/
#338
0/
#339
0#"
0%"
1/
#340
0/
#341
b1010101 T
b101010100000000000 >
b101010100000000000 N
b101010100000000000 !"
b1010110 ("
b101010100000000000 5
b101010100000000000 }
b101010100000000000 &"
1#"
1%"
1/
#342
0/
#343
0#"
0%"
1/
#344
0/
#345
b1010110 T
b101011000000000000 >
b101011000000000000 N
b101011000000000000 !"
b1010111 ("
b101011000000000000 5
b101011000000000000 }
b101011000000000000 &"
1#"
1%"
1/
#346
0/
#347
0#"
0%"
1/
#348
0/
#349
b1010111 T
b101011100000000000 >
b101011100000000000 N
b101011100000000000 !"
b1011000 ("
b101011100000000000 5
b101011100000000000 }
b101011100000000000 &"
1#"
1%"
1/
#350
0/
#351
0#"
0%"
1/
#352
0/
#353
b1011000 T
b101100000000000000 >
b101100000000000000 N
b101100000000000000 !"
b1011001 ("
b101100000000000000 5
b101100000000000000 }
b101100000000000000 &"
1#"
1%"
1/
#354
0/
#355
0#"
0%"
1/
#356
0/
#357
b1011001 T
b101100100000000000 >
b101100100000000000 N
b101100100000000000 !"
b1011010 ("
b101100100000000000 5
b101100100000000000 }
b101100100000000000 &"
1#"
1%"
1/
#358
0/
#359
0#"
0%"
1/
#360
0/
#361
b1011010 T
b101101000000000000 >
b101101000000000000 N
b101101000000000000 !"
b1011011 ("
b101101000000000000 5
b101101000000000000 }
b101101000000000000 &"
1#"
1%"
1/
#362
0/
#363
0#"
0%"
1/
#364
0/
#365
b1011011 T
b101101100000000000 >
b101101100000000000 N
b101101100000000000 !"
b1011100 ("
b101101100000000000 5
b101101100000000000 }
b101101100000000000 &"
1#"
1%"
1/
#366
0/
#367
0#"
0%"
1/
#368
0/
#369
b1011100 T
b101110000000000000 >
b101110000000000000 N
b101110000000000000 !"
b1011101 ("
b101110000000000000 5
b101110000000000000 }
b101110000000000000 &"
1#"
1%"
1/
#370
0/
#371
0#"
0%"
1/
#372
0/
#373
b1011101 T
b101110100000000000 >
b101110100000000000 N
b101110100000000000 !"
b1011110 ("
b101110100000000000 5
b101110100000000000 }
b101110100000000000 &"
1#"
1%"
1/
#374
0/
#375
0#"
0%"
1/
#376
0/
#377
b1011110 T
b101111000000000000 >
b101111000000000000 N
b101111000000000000 !"
b1011111 ("
b101111000000000000 5
b101111000000000000 }
b101111000000000000 &"
1#"
1%"
1/
#378
0/
#379
0#"
0%"
1/
#380
0/
#381
b1011111 T
b101111100000000000 >
b101111100000000000 N
b101111100000000000 !"
b1100000 ("
b101111100000000000 5
b101111100000000000 }
b101111100000000000 &"
1#"
1%"
1/
#382
0/
#383
0#"
0%"
1/
#384
0/
#385
b1100000 T
b110000000000000000 >
b110000000000000000 N
b110000000000000000 !"
b1100001 ("
b110000000000000000 5
b110000000000000000 }
b110000000000000000 &"
1#"
1%"
1/
#386
0/
#387
0#"
0%"
1/
#388
0/
#389
b1100001 T
b110000100000000000 >
b110000100000000000 N
b110000100000000000 !"
b1100010 ("
b110000100000000000 5
b110000100000000000 }
b110000100000000000 &"
1#"
1%"
1/
#390
0/
#391
0#"
0%"
1/
#392
0/
#393
b1100010 T
b110001000000000000 >
b110001000000000000 N
b110001000000000000 !"
b1100011 ("
b110001000000000000 5
b110001000000000000 }
b110001000000000000 &"
1#"
1%"
1/
#394
0/
#395
0#"
0%"
1/
#396
0/
#397
b1100011 T
b110001100000000000 >
b110001100000000000 N
b110001100000000000 !"
b1100100 ("
b110001100000000000 5
b110001100000000000 }
b110001100000000000 &"
1#"
1%"
1/
#398
0/
#399
0#"
0%"
1/
#400
0/
#401
b1100100 T
b110010000000000000 >
b110010000000000000 N
b110010000000000000 !"
b1100101 ("
b110010000000000000 5
b110010000000000000 }
b110010000000000000 &"
1#"
1%"
1/
#402
0/
#403
0#"
0%"
1/
#404
0/
