TB_vgadriver.vcd
$date
	Sun Apr 02 20:16:53 2017
$end
$version
	Icarus Verilog
$end
$timescale
	10ns
$end
$scope module TB_vgadriver $end
$var wire 1 ! VGA_VS $end
$var wire 1 " VGA_R $end
$var wire 1 # VGA_HS $end
$var wire 1 $ VGA_G $end
$var wire 1 % VGA_B $end
$var reg 1 & B $end
$var reg 1 ' East $end
$var reg 1 ( G $end
$var reg 1 ) North $end
$var reg 1 * R $end
$var reg 1 + South $end
$var reg 1 , West $end
$var reg 1 - change_button $end
$var reg 1 . clk_50 $end
$var reg 1 / set $end
$scope module UUT $end
$var wire 1 & B $end
$var wire 1 ' East $end
$var wire 1 ( G $end
$var wire 1 ) North $end
$var wire 1 * R $end
$var wire 1 + South $end
$var wire 1 , West $end
$var wire 1 - change_button $end
$var wire 1 / set $end
$var wire 1 . sysclk $end
$var wire 3 0 f2_instruction [2:0] $end
$var wire 3 1 f2_image_index [2:0] $end
$var wire 3 2 f2_gpu_read_color [2:0] $end
$var wire 8 3 f2_gpu_read_addr [7:0] $end
$var wire 3 4 f2_gpu_display_color [2:0] $end
$var wire 20 5 f2_gpu_display_addr [19:0] $end
$var wire 3 6 f1_vram_read_color [2:0] $end
$var wire 1 7 f1_keyproc_write $end
$var wire 3 8 f1_keyproc_color [2:0] $end
$var wire 3 9 container_write_color [2:0] $end
$var wire 20 : container_read_addr [19:0] $end
$var wire 1 ! VGA_VS $end
$var wire 1 " VGA_R $end
$var wire 1 # VGA_HS $end
$var wire 1 $ VGA_G $end
$var wire 1 % VGA_B $end
$scope module container $end
$var wire 1 - change_button $end
$var wire 1 . sysclk $end
$var wire 3 ; f2_gpu_display_color [2:0] $end
$var wire 3 < f1_vram_read [2:0] $end
$var wire 20 = display_addr [19:0] $end
$var reg 2 > current_function [1:0] $end
$var reg 3 ? display_color [2:0] $end
$var reg 20 @ f2_gpu_display_addr [19:0] $end
$upscope $end
$scope module function1_keyproc $end
$var wire 1 & B $end
$var wire 1 ( G $end
$var wire 1 * R $end
$var wire 1 / set $end
$var wire 1 . sysclk $end
$var reg 3 A color [2:0] $end
$var reg 1 7 write $end
$upscope $end
$scope module function1_vram $end
$var wire 1 7 write $end
$var wire 3 B write_color [2:0] $end
$var reg 3 C color [2:0] $end
$var reg 3 D read_color [2:0] $end
$upscope $end
$scope module function2_gpu $end
$var wire 20 E display_addr [19:0] $end
$var wire 1 . sysclk $end
$var wire 3 F pixel_data [2:0] $end
$var wire 3 G instruction [2:0] $end
$var reg 8 H anime_pixel_index [7:0] $end
$var reg 3 I command [2:0] $end
$var reg 3 J current_image [2:0] $end
$var reg 4 K delay_counter [3:0] $end
$var reg 3 L display_data [2:0] $end
$var reg 10 M display_x [9:0] $end
$var reg 10 N display_y [9:0] $end
$var reg 3 O image_index [2:0] $end
$var reg 1 P negative $end
$var reg 8 Q pixel_addr [7:0] $end
$var reg 4 R pixel_x [3:0] $end
$var reg 4 S pixel_y [3:0] $end
$var reg 1 T state $end
$upscope $end
$scope module function2_keyproc $end
$var wire 1 ' East $end
$var wire 1 ) North $end
$var wire 1 + South $end
$var wire 1 , West $end
$var wire 1 . sysclk $end
$var reg 3 U instruction [2:0] $end
$upscope $end
$scope module function2_ram $end
$var wire 3 V image_index [2:0] $end
$var wire 8 W pixel_addr [7:0] $end
$var reg 3 X pixel_data [2:0] $end
$upscope $end
$scope module vgaport $end
$var wire 1 # VGA_HS $end
$var wire 1 ! VGA_VS $end
$var wire 3 Y pixel_data [2:0] $end
$var wire 1 . sysclk $end
$var wire 1 " VGA_R $end
$var wire 1 $ VGA_G $end
$var wire 1 % VGA_B $end
$var reg 20 Z pixel_addr [19:0] $end
$var reg 3 [ pixel_rgb [2:0] $end
$var reg 10 \ x_counter [9:0] $end
$var reg 10 ] y_counter [9:0] $end
$upscope $end
$upscope $end
$upscope $end
$enddefinitions $end
#0
$dumpvars
b0 ]
b0 \
bx [
b0 Z
bx Y
b111 X
b11110001 W
b0 V
b0 U
0T
b1 S
b1111 R
b11110001 Q
0P
b0 O
bx N
bx M
b111 L
b0 K
b0 J
b0 I
b0 H
b0 G
b111 F
bx E
b0 D
b0 C
bx B
bx A
bx @
bx ?
b0 >
b0 =
b0 <
b111 ;
b0 :
bx 9
bx 8
x7
b0 6
bx 5
b111 4
b11110001 3
b111 2
b0 1
b0 0
0/
0.
0-
0,
0+
0*
0)
0(
0'
0&
x%
x$
0#
x"
0!
$end
#1
0"
0$
0%
b10000000000 :
b10000000000 =
b10000000000 Z
b0 [
07
b1 K
b0 9
b0 ?
b0 Y
b1 \
1.
#2
0.
#3
b100000000000 :
b100000000000 =
b100000000000 Z
b10 K
b10 \
1.
#4
0.
1-
#5
b110000000000 :
b110000000000 =
b110000000000 Z
b11 K
b0 3
b0 Q
b0 W
b0 S
b0 R
b0 N
b10 M
0T
b100000000000 5
b100000000000 @
b100000000000 E
b1 >
b11 \
1.
#6
0.
0-
#7
b1000000000000 :
b1000000000000 =
b1000000000000 Z
b100 K
b11 M
0T
b100 \
b110000000000 5
b110000000000 @
b110000000000 E
1.
#8
0.
#9
b0 4
b0 ;
b0 L
1P
b100 I
b1010000000000 :
b1010000000000 =
b1010000000000 Z
b100 0
b100 G
b100 U
b101 K
b100 M
0T
b1000000000000 5
b1000000000000 @
b1000000000000 E
b101 \
1.
1+
#10
0.
#11
b1100000000000 :
b1100000000000 =
b1100000000000 Z
b110 K
b101 M
0T
b110 \
b1010000000000 5
b1010000000000 @
b1010000000000 E
1.
#12
0.
#13
b1110000000000 :
b1110000000000 =
b1110000000000 Z
b111 K
b110 M
0T
b1100000000000 5
b1100000000000 @
b1100000000000 E
b111 \
1.
#14
0.
0+
#15
b111 4
b111 ;
b111 L
0P
b0 I
b10000000000000 :
b10000000000000 =
b10000000000000 Z
b1000 K
b0 0
b0 G
b0 U
1#
b111 M
0T
b1000 \
b1110000000000 5
b1110000000000 @
b1110000000000 E
1.
#16
0.
#17
b1 1
b1 O
b1 V
b1 J
b1 I
b10010000000000 :
b10010000000000 =
b10010000000000 Z
b1 0
b1 G
b1 U
b1001 K
b1000 M
1T
b10000000000000 5
b10000000000000 @
b10000000000000 E
b1001 \
1.
1'
#18
0.
#19
b10100000000000 :
b10100000000000 =
b10100000000000 Z
b1010 K
b0 1
b0 O
b0 V
b1001 M
b0 J
b1010 \
b10010000000000 5
b10010000000000 @
b10010000000000 E
1.
#20
0.
#21
b10110000000000 :
b10110000000000 =
b10110000000000 Z
b1011 K
b1 1
b1 O
b1 V
b1010 M
b1 J
b10100000000000 5
b10100000000000 @
b10100000000000 E
b1011 \
1.
#22
0.
0'
#23
b11000000000000 :
b11000000000000 =
b11000000000000 Z
b1100 K
b0 0
b0 G
b0 U
b1 1
b1 O
b1 V
b1011 M
b1 J
b1100 \
b10110000000000 5
b10110000000000 @
b10110000000000 E
1.
#24
0.
#25
b11010000000000 :
b11010000000000 =
b11010000000000 Z
b1101 K
b0 1
b0 O
b0 V
b1100 M
b0 J
b11000000000000 5
b11000000000000 @
b11000000000000 E
b1101 \
1.
#26
0.
#27
b11100000000000 :
b11100000000000 =
b11100000000000 Z
b1110 K
b1 1
b1 O
b1 V
b1101 M
b1 J
b1110 \
b11010000000000 5
b11010000000000 @
b11010000000000 E
1.
#28
0.
#29
b11110000000000 :
b11110000000000 =
b11110000000000 Z
b1111 K
b0 1
b0 O
b0 V
b1110 M
b0 J
b11100000000000 5
b11100000000000 @
b11100000000000 E
b1111 \
1.
#30
0.
#31
b100000000000000 :
b100000000000000 =
b100000000000000 Z
b0 K
b1 1
b1 O
b1 V
b1111 M
b1 J
b10000 \
b11110000000000 5
b11110000000000 @
b11110000000000 E
1.
#32
0.
#33
b100010000000000 :
b100010000000000 =
b100010000000000 Z
b1 K
b1 H
b0 1
b0 O
b0 V
b10000 M
b1 J
b100000000000000 5
b100000000000000 @
b100000000000000 E
b10001 \
1.
#34
0.
#35
b100100000000000 :
b100100000000000 =
b100100000000000 Z
b10 K
b1 1
b1 O
b1 V
b10001 M
b0 J
b10010 \
b100010000000000 5
b100010000000000 @
b100010000000000 E
1.
#36
0.
#37
b100110000000000 :
b100110000000000 =
b100110000000000 Z
b11 K
b0 1
b0 O
b0 V
b10010 M
b1 J
b100100000000000 5
b100100000000000 @
b100100000000000 E
b10011 \
1.
#38
0.
#39
b101000000000000 :
b101000000000000 =
b101000000000000 Z
b100 K
b1 1
b1 O
b1 V
b10011 M
b0 J
b10100 \
b100110000000000 5
b100110000000000 @
b100110000000000 E
1.
#40
0.
#41
b101010000000000 :
b101010000000000 =
b101010000000000 Z
b101 K
b0 1
b0 O
b0 V
b10100 M
b1 J
b101000000000000 5
b101000000000000 @
b101000000000000 E
b10101 \
1.
#42
0.
#43
b101100000000000 :
b101100000000000 =
b101100000000000 Z
b110 K
b1 1
b1 O
b1 V
b10101 M
b0 J
b10110 \
b101010000000000 5
b101010000000000 @
b101010000000000 E
1.
#44
0.
#45
b101110000000000 :
b101110000000000 =
b101110000000000 Z
b111 K
b0 1
b0 O
b0 V
b10110 M
b1 J
b101100000000000 5
b101100000000000 @
b101100000000000 E
b10111 \
1.
#46
0.
#47
b110000000000000 :
b110000000000000 =
b110000000000000 Z
b1000 K
b1 1
b1 O
b1 V
b10111 M
b0 J
b11000 \
b101110000000000 5
b101110000000000 @
b101110000000000 E
1.
#48
0.
#49
b110010000000000 :
b110010000000000 =
b110010000000000 Z
b1001 K
b0 1
b0 O
b0 V
b11000 M
b1 J
b110000000000000 5
b110000000000000 @
b110000000000000 E
b11001 \
1.
#50
0.
#51
b110100000000000 :
b110100000000000 =
b110100000000000 Z
b1010 K
b1 1
b1 O
b1 V
b11001 M
b0 J
b11010 \
b110010000000000 5
b110010000000000 @
b110010000000000 E
1.
#52
0.
#53
b110110000000000 :
b110110000000000 =
b110110000000000 Z
b1011 K
b0 1
b0 O
b0 V
b11010 M
b1 J
b110100000000000 5
b110100000000000 @
b110100000000000 E
b11011 \
1.
#54
0.
#55
b111000000000000 :
b111000000000000 =
b111000000000000 Z
b1100 K
b1 1
b1 O
b1 V
b11011 M
b0 J
b11100 \
b110110000000000 5
b110110000000000 @
b110110000000000 E
1.
#56
0.
#57
b111010000000000 :
b111010000000000 =
b111010000000000 Z
b1101 K
b0 1
b0 O
b0 V
b11100 M
b1 J
b111000000000000 5
b111000000000000 @
b111000000000000 E
b11101 \
1.
#58
0.
#59
b111100000000000 :
b111100000000000 =
b111100000000000 Z
b1110 K
b1 1
b1 O
b1 V
b11101 M
b0 J
b11110 \
b111010000000000 5
b111010000000000 @
b111010000000000 E
1.
#60
0.
#61
b111110000000000 :
b111110000000000 =
b111110000000000 Z
b1111 K
b0 1
b0 O
b0 V
b11110 M
b1 J
b111100000000000 5
b111100000000000 @
b111100000000000 E
b11111 \
1.
#62
0.
#63
b1000000000000000 :
b1000000000000000 =
b1000000000000000 Z
b0 K
b1 1
b1 O
b1 V
b11111 M
b0 J
b100000 \
b111110000000000 5
b111110000000000 @
b111110000000000 E
1.
#64
0.
#65
b1000010000000000 :
b1000010000000000 =
b1000010000000000 Z
b1 K
b10 H
b1 1
b1 O
b1 V
b100000 M
b0 J
b1000000000000000 5
b1000000000000000 @
b1000000000000000 E
b100001 \
1.
#66
0.
#67
b1000100000000000 :
b1000100000000000 =
b1000100000000000 Z
b10 K
b0 1
b0 O
b0 V
b100001 M
b1 J
b100010 \
b1000010000000000 5
b1000010000000000 @
b1000010000000000 E
1.
#68
0.
#69
b1000110000000000 :
b1000110000000000 =
b1000110000000000 Z
b11 K
b1 1
b1 O
b1 V
b100010 M
b0 J
b1000100000000000 5
b1000100000000000 @
b1000100000000000 E
b100011 \
1.
#70
0.
#71
b1001000000000000 :
b1001000000000000 =
b1001000000000000 Z
b100 K
b0 1
b0 O
b0 V
b100011 M
b1 J
b100100 \
b1000110000000000 5
b1000110000000000 @
b1000110000000000 E
1.
#72
0.
#73
b1001010000000000 :
b1001010000000000 =
b1001010000000000 Z
b101 K
b1 1
b1 O
b1 V
b100100 M
b0 J
b1001000000000000 5
b1001000000000000 @
b1001000000000000 E
b100101 \
1.
#74
0.
#75
b1001100000000000 :
b1001100000000000 =
b1001100000000000 Z
b110 K
b0 1
b0 O
b0 V
b100101 M
b1 J
b100110 \
b1001010000000000 5
b1001010000000000 @
b1001010000000000 E
1.
#76
0.
#77
b1001110000000000 :
b1001110000000000 =
b1001110000000000 Z
b111 K
b1 1
b1 O
b1 V
b100110 M
b0 J
b1001100000000000 5
b1001100000000000 @
b1001100000000000 E
b100111 \
1.
#78
0.
#79
b1010000000000000 :
b1010000000000000 =
b1010000000000000 Z
b1000 K
b0 1
b0 O
b0 V
b100111 M
b1 J
b101000 \
b1001110000000000 5
b1001110000000000 @
b1001110000000000 E
1.
#80
0.
#81
b1010010000000000 :
b1010010000000000 =
b1010010000000000 Z
b1001 K
b1 1
b1 O
b1 V
b101000 M
b0 J
b1010000000000000 5
b1010000000000000 @
b1010000000000000 E
b101001 \
1.
#82
0.
#83
b1010100000000000 :
b1010100000000000 =
b1010100000000000 Z
b1010 K
b0 1
b0 O
b0 V
b101001 M
b1 J
b101010 \
b1010010000000000 5
b1010010000000000 @
b1010010000000000 E
1.
#84
0.
#85
b1010110000000000 :
b1010110000000000 =
b1010110000000000 Z
b1011 K
b1 1
b1 O
b1 V
b101010 M
b0 J
b1010100000000000 5
b1010100000000000 @
b1010100000000000 E
b101011 \
1.
#86
0.
#87
b1011000000000000 :
b1011000000000000 =
b1011000000000000 Z
b1100 K
b0 1
b0 O
b0 V
b101011 M
b1 J
b101100 \
b1010110000000000 5
b1010110000000000 @
b1010110000000000 E
1.
#88
0.
#89
b1011010000000000 :
b1011010000000000 =
b1011010000000000 Z
b1101 K
b1 1
b1 O
b1 V
b101100 M
b0 J
b1011000000000000 5
b1011000000000000 @
b1011000000000000 E
b101101 \
1.
#90
0.
#91
b1011100000000000 :
b1011100000000000 =
b1011100000000000 Z
b1110 K
b0 1
b0 O
b0 V
b101101 M
b1 J
b101110 \
b1011010000000000 5
b1011010000000000 @
b1011010000000000 E
1.
#92
0.
#93
b1011110000000000 :
b1011110000000000 =
b1011110000000000 Z
b1111 K
b1 1
b1 O
b1 V
b101110 M
b0 J
b1011100000000000 5
b1011100000000000 @
b1011100000000000 E
b101111 \
1.
#94
0.
#95
b1100000000000000 :
b1100000000000000 =
b1100000000000000 Z
b0 K
b0 1
b0 O
b0 V
b101111 M
b1 J
b110000 \
b1011110000000000 5
b1011110000000000 @
b1011110000000000 E
1.
#96
0.
#97
b1100010000000000 :
b1100010000000000 =
b1100010000000000 Z
b1 K
b11 H
b0 1
b0 O
b0 V
b110000 M
b1 J
b1100000000000000 5
b1100000000000000 @
b1100000000000000 E
b110001 \
1.
#98
0.
#99
b1100100000000000 :
b1100100000000000 =
b1100100000000000 Z
b10 K
b1 1
b1 O
b1 V
b110001 M
b0 J
b110010 \
b1100010000000000 5
b1100010000000000 @
b1100010000000000 E
1.
#100
0.
#101
b1100110000000000 :
b1100110000000000 =
b1100110000000000 Z
b11 K
b0 1
b0 O
b0 V
b110010 M
b1 J
b1100100000000000 5
b1100100000000000 @
b1100100000000000 E
b110011 \
1.
#102
0.
#103
b1101000000000000 :
b1101000000000000 =
b1101000000000000 Z
b100 K
b1 1
b1 O
b1 V
b110011 M
b0 J
b110100 \
b1100110000000000 5
b1100110000000000 @
b1100110000000000 E
1.
#104
0.
#105
b1101010000000000 :
b1101010000000000 =
b1101010000000000 Z
b101 K
b0 1
b0 O
b0 V
b110100 M
b1 J
b1101000000000000 5
b1101000000000000 @
b1101000000000000 E
b110101 \
1.
#106
0.
#107
b1101100000000000 :
b1101100000000000 =
b1101100000000000 Z
b110 K
b1 1
b1 O
b1 V
b110101 M
b0 J
b110110 \
b1101010000000000 5
b1101010000000000 @
b1101010000000000 E
1.
#108
0.
#109
b1101110000000000 :
b1101110000000000 =
b1101110000000000 Z
b111 K
b0 1
b0 O
b0 V
b110110 M
b1 J
b1101100000000000 5
b1101100000000000 @
b1101100000000000 E
b110111 \
1.
#110
0.
#111
b1110000000000000 :
b1110000000000000 =
b1110000000000000 Z
b1000 K
b1 1
b1 O
b1 V
b110111 M
b0 J
b111000 \
b1101110000000000 5
b1101110000000000 @
b1101110000000000 E
1.
#112
0.
#113
b1110010000000000 :
b1110010000000000 =
b1110010000000000 Z
b1001 K
b0 1
b0 O
b0 V
b111000 M
b1 J
b1110000000000000 5
b1110000000000000 @
b1110000000000000 E
b111001 \
1.
#114
0.
#115
b1110100000000000 :
b1110100000000000 =
b1110100000000000 Z
b1010 K
b1 1
b1 O
b1 V
b111001 M
b0 J
b111010 \
b1110010000000000 5
b1110010000000000 @
b1110010000000000 E
1.
#116
0.
#117
b1110110000000000 :
b1110110000000000 =
b1110110000000000 Z
b1011 K
b0 1
b0 O
b0 V
b111010 M
b1 J
b1110100000000000 5
b1110100000000000 @
b1110100000000000 E
b111011 \
1.
#118
0.
#119
b1111000000000000 :
b1111000000000000 =
b1111000000000000 Z
b1100 K
b1 1
b1 O
b1 V
b111011 M
b0 J
b111100 \
b1110110000000000 5
b1110110000000000 @
b1110110000000000 E
1.
#120
0.
#121
b1111010000000000 :
b1111010000000000 =
b1111010000000000 Z
b1101 K
b0 1
b0 O
b0 V
b111100 M
b1 J
b1111000000000000 5
b1111000000000000 @
b1111000000000000 E
b111101 \
1.
#122
0.
#123
b1111100000000000 :
b1111100000000000 =
b1111100000000000 Z
b1110 K
b1 1
b1 O
b1 V
b111101 M
b0 J
b111110 \
b1111010000000000 5
b1111010000000000 @
b1111010000000000 E
1.
#124
0.
#125
b1111110000000000 :
b1111110000000000 =
b1111110000000000 Z
b1111 K
b0 1
b0 O
b0 V
b111110 M
b1 J
b1111100000000000 5
b1111100000000000 @
b1111100000000000 E
b111111 \
1.
#126
0.
#127
b10000000000000000 :
b10000000000000000 =
b10000000000000000 Z
b0 K
b1 1
b1 O
b1 V
b111111 M
b0 J
b1000000 \
b1111110000000000 5
b1111110000000000 @
b1111110000000000 E
1.
#128
0.
#129
b10000010000000000 :
b10000010000000000 =
b10000010000000000 Z
b1 K
b100 H
b1 1
b1 O
b1 V
b1000000 M
b0 J
b10000000000000000 5
b10000000000000000 @
b10000000000000000 E
b1000001 \
1.
#130
0.
#131
b10000100000000000 :
b10000100000000000 =
b10000100000000000 Z
b10 K
b0 1
b0 O
b0 V
b1000001 M
b1 J
b1000010 \
b10000010000000000 5
b10000010000000000 @
b10000010000000000 E
1.
#132
0.
#133
b10000110000000000 :
b10000110000000000 =
b10000110000000000 Z
b11 K
b1 1
b1 O
b1 V
b1000010 M
b0 J
b10000100000000000 5
b10000100000000000 @
b10000100000000000 E
b1000011 \
1.
#134
0.
#135
b10001000000000000 :
b10001000000000000 =
b10001000000000000 Z
b100 K
b0 1
b0 O
b0 V
b1000011 M
b1 J
b1000100 \
b10000110000000000 5
b10000110000000000 @
b10000110000000000 E
1.
#136
0.
#137
b10001010000000000 :
b10001010000000000 =
b10001010000000000 Z
b101 K
b1 1
b1 O
b1 V
b1000100 M
b0 J
b10001000000000000 5
b10001000000000000 @
b10001000000000000 E
b1000101 \
1.
#138
0.
#139
b10001100000000000 :
b10001100000000000 =
b10001100000000000 Z
b110 K
b0 1
b0 O
b0 V
b1000101 M
b1 J
b1000110 \
b10001010000000000 5
b10001010000000000 @
b10001010000000000 E
1.
#140
0.
#141
b10001110000000000 :
b10001110000000000 =
b10001110000000000 Z
b111 K
b1 1
b1 O
b1 V
b1000110 M
b0 J
b10001100000000000 5
b10001100000000000 @
b10001100000000000 E
b1000111 \
1.
#142
0.
#143
b10010000000000000 :
b10010000000000000 =
b10010000000000000 Z
b1000 K
b0 1
b0 O
b0 V
b1000111 M
b1 J
b1001000 \
b10001110000000000 5
b10001110000000000 @
b10001110000000000 E
1.
#144
0.
#145
b10010010000000000 :
b10010010000000000 =
b10010010000000000 Z
b1001 K
b1 1
b1 O
b1 V
b1001000 M
b0 J
b10010000000000000 5
b10010000000000000 @
b10010000000000000 E
b1001001 \
1.
#146
0.
#147
b10010100000000000 :
b10010100000000000 =
b10010100000000000 Z
b1010 K
b0 1
b0 O
b0 V
b1001001 M
b1 J
b1001010 \
b10010010000000000 5
b10010010000000000 @
b10010010000000000 E
1.
#148
0.
#149
b10010110000000000 :
b10010110000000000 =
b10010110000000000 Z
b1011 K
b1 1
b1 O
b1 V
b1001010 M
b0 J
b10010100000000000 5
b10010100000000000 @
b10010100000000000 E
b1001011 \
1.
#150
0.
#151
b10011000000000000 :
b10011000000000000 =
b10011000000000000 Z
b1100 K
b0 1
b0 O
b0 V
b1001011 M
b1 J
b1001100 \
b10010110000000000 5
b10010110000000000 @
b10010110000000000 E
1.
#152
0.
#153
b10011010000000000 :
b10011010000000000 =
b10011010000000000 Z
b1101 K
b1 1
b1 O
b1 V
b1001100 M
b0 J
b10011000000000000 5
b10011000000000000 @
b10011000000000000 E
b1001101 \
1.
#154
0.
#155
b10011100000000000 :
b10011100000000000 =
b10011100000000000 Z
b1110 K
b0 1
b0 O
b0 V
b1001101 M
b1 J
b1001110 \
b10011010000000000 5
b10011010000000000 @
b10011010000000000 E
1.
#156
0.
#157
b10011110000000000 :
b10011110000000000 =
b10011110000000000 Z
b1111 K
b1 1
b1 O
b1 V
b1001110 M
b0 J
b10011100000000000 5
b10011100000000000 @
b10011100000000000 E
b1001111 \
1.
#158
0.
#159
b10100000000000000 :
b10100000000000000 =
b10100000000000000 Z
b0 K
b0 1
b0 O
b0 V
b1001111 M
b1 J
b1010000 \
b10011110000000000 5
b10011110000000000 @
b10011110000000000 E
1.
#160
0.
#161
b10100010000000000 :
b10100010000000000 =
b10100010000000000 Z
b1 K
b101 H
b0 1
b0 O
b0 V
b1010000 M
b1 J
b10100000000000000 5
b10100000000000000 @
b10100000000000000 E
b1010001 \
1.
#162
0.
#163
b10100100000000000 :
b10100100000000000 =
b10100100000000000 Z
b10 K
b1 1
b1 O
b1 V
b1010001 M
b0 J
b1010010 \
b10100010000000000 5
b10100010000000000 @
b10100010000000000 E
1.
#164
0.
#165
b10100110000000000 :
b10100110000000000 =
b10100110000000000 Z
b11 K
b0 1
b0 O
b0 V
b1010010 M
b1 J
b10100100000000000 5
b10100100000000000 @
b10100100000000000 E
b1010011 \
1.
#166
0.
#167
b10101000000000000 :
b10101000000000000 =
b10101000000000000 Z
b100 K
b1 1
b1 O
b1 V
b1010011 M
b0 J
b1010100 \
b10100110000000000 5
b10100110000000000 @
b10100110000000000 E
1.
#168
0.
#169
b10101010000000000 :
b10101010000000000 =
b10101010000000000 Z
b101 K
b0 1
b0 O
b0 V
b1010100 M
b1 J
b10101000000000000 5
b10101000000000000 @
b10101000000000000 E
b1010101 \
1.
#170
0.
#171
b10101100000000000 :
b10101100000000000 =
b10101100000000000 Z
b110 K
b1 1
b1 O
b1 V
b1010101 M
b0 J
b1010110 \
b10101010000000000 5
b10101010000000000 @
b10101010000000000 E
1.
#172
0.
#173
b10101110000000000 :
b10101110000000000 =
b10101110000000000 Z
b111 K
b0 1
b0 O
b0 V
b1010110 M
b1 J
b10101100000000000 5
b10101100000000000 @
b10101100000000000 E
b1010111 \
1.
#174
0.
#175
b10110000000000000 :
b10110000000000000 =
b10110000000000000 Z
b1000 K
b1 1
b1 O
b1 V
b1010111 M
b0 J
b1011000 \
b10101110000000000 5
b10101110000000000 @
b10101110000000000 E
1.
#176
0.
#177
b10110010000000000 :
b10110010000000000 =
b10110010000000000 Z
b1001 K
b0 1
b0 O
b0 V
b1011000 M
b1 J
b10110000000000000 5
b10110000000000000 @
b10110000000000000 E
b1011001 \
1.
#178
0.
#179
b10110100000000000 :
b10110100000000000 =
b10110100000000000 Z
b1010 K
b1 1
b1 O
b1 V
b1011001 M
b0 J
b1011010 \
b10110010000000000 5
b10110010000000000 @
b10110010000000000 E
1.
#180
0.
#181
b10110110000000000 :
b10110110000000000 =
b10110110000000000 Z
b1011 K
b0 1
b0 O
b0 V
b1011010 M
b1 J
b10110100000000000 5
b10110100000000000 @
b10110100000000000 E
b1011011 \
1.
#182
0.
#183
b10111000000000000 :
b10111000000000000 =
b10111000000000000 Z
b1100 K
b1 1
b1 O
b1 V
b1011011 M
b0 J
b1011100 \
b10110110000000000 5
b10110110000000000 @
b10110110000000000 E
1.
#184
0.
#185
b10111010000000000 :
b10111010000000000 =
b10111010000000000 Z
b1101 K
b0 1
b0 O
b0 V
b1011100 M
b1 J
b10111000000000000 5
b10111000000000000 @
b10111000000000000 E
b1011101 \
1.
#186
0.
#187
b10111100000000000 :
b10111100000000000 =
b10111100000000000 Z
b1110 K
b1 1
b1 O
b1 V
b1011101 M
b0 J
b1011110 \
b10111010000000000 5
b10111010000000000 @
b10111010000000000 E
1.
#188
0.
#189
b10111110000000000 :
b10111110000000000 =
b10111110000000000 Z
b1111 K
b0 1
b0 O
b0 V
b1011110 M
b1 J
b10111100000000000 5
b10111100000000000 @
b10111100000000000 E
b1011111 \
1.
#190
0.
#191
b11000000000000000 :
b11000000000000000 =
b11000000000000000 Z
b0 K
b1 1
b1 O
b1 V
b1011111 M
b0 J
b1100000 \
b10111110000000000 5
b10111110000000000 @
b10111110000000000 E
1.
#192
0.
#193
b11000010000000000 :
b11000010000000000 =
b11000010000000000 Z
b1 K
b110 H
b1 1
b1 O
b1 V
b1100000 M
b0 J
b11000000000000000 5
b11000000000000000 @
b11000000000000000 E
b1100001 \
1.
#194
0.
#195
b11000100000000000 :
b11000100000000000 =
b11000100000000000 Z
b10 K
b0 1
b0 O
b0 V
b1100001 M
b1 J
b1100010 \
b11000010000000000 5
b11000010000000000 @
b11000010000000000 E
1.
#196
0.
#197
b11000110000000000 :
b11000110000000000 =
b11000110000000000 Z
b11 K
b1 1
b1 O
b1 V
b1100010 M
b0 J
b11000100000000000 5
b11000100000000000 @
b11000100000000000 E
b1100011 \
1.
#198
0.
#199
b11001000000000000 :
b11001000000000000 =
b11001000000000000 Z
b100 K
b0 1
b0 O
b0 V
b1100011 M
b1 J
b1100100 \
b11000110000000000 5
b11000110000000000 @
b11000110000000000 E
1.
#200
0.
#201
b11001010000000000 :
b11001010000000000 =
b11001010000000000 Z
b101 K
b1 1
b1 O
b1 V
b1100100 M
b0 J
b11001000000000000 5
b11001000000000000 @
b11001000000000000 E
b1100101 \
1.
#202
0.
#203
b11001100000000000 :
b11001100000000000 =
b11001100000000000 Z
b110 K
b0 1
b0 O
b0 V
b1100101 M
b1 J
b1100110 \
b11001010000000000 5
b11001010000000000 @
b11001010000000000 E
1.
#204
0.
#205
b11001110000000000 :
b11001110000000000 =
b11001110000000000 Z
b111 K
b1 1
b1 O
b1 V
b1100110 M
b0 J
b11001100000000000 5
b11001100000000000 @
b11001100000000000 E
b1100111 \
1.
#206
0.
#207
b11010000000000000 :
b11010000000000000 =
b11010000000000000 Z
b1000 K
0#
b0 1
b0 O
b0 V
b1100111 M
b1 J
b1101000 \
b11001110000000000 5
b11001110000000000 @
b11001110000000000 E
1.
#208
0.
#209
b11010010000000000 :
b11010010000000000 =
b11010010000000000 Z
b1001 K
b1 1
b1 O
b1 V
b1101000 M
b0 J
b11010000000000000 5
b11010000000000000 @
b11010000000000000 E
b1101001 \
1.
#210
0.
#211
b11010100000000000 :
b11010100000000000 =
b11010100000000000 Z
b1010 K
b0 1
b0 O
b0 V
b1101001 M
b1 J
b1101010 \
b11010010000000000 5
b11010010000000000 @
b11010010000000000 E
1.
#212
0.
#213
b11010110000000000 :
b11010110000000000 =
b11010110000000000 Z
b1011 K
b1 1
b1 O
b1 V
b1101010 M
b0 J
b11010100000000000 5
b11010100000000000 @
b11010100000000000 E
b1101011 \
1.
#214
0.
#215
b11011000000000000 :
b11011000000000000 =
b11011000000000000 Z
b1100 K
b0 1
b0 O
b0 V
b1101011 M
b1 J
b1101100 \
b11010110000000000 5
b11010110000000000 @
b11010110000000000 E
1.
#216
0.
#217
b11011010000000000 :
b11011010000000000 =
b11011010000000000 Z
b1101 K
b1 1
b1 O
b1 V
b1101100 M
b0 J
b11011000000000000 5
b11011000000000000 @
b11011000000000000 E
b1101101 \
1.
#218
0.
#219
b11011100000000000 :
b11011100000000000 =
b11011100000000000 Z
b1110 K
b0 1
b0 O
b0 V
b1101101 M
b1 J
b1101110 \
b11011010000000000 5
b11011010000000000 @
b11011010000000000 E
1.
#220
0.
#221
b11011110000000000 :
b11011110000000000 =
b11011110000000000 Z
b1111 K
b1 1
b1 O
b1 V
b1101110 M
b0 J
b11011100000000000 5
b11011100000000000 @
b11011100000000000 E
b1101111 \
1.
#222
0.
#223
b11100000000000000 :
b11100000000000000 =
b11100000000000000 Z
b0 K
b0 1
b0 O
b0 V
b1101111 M
b1 J
b1110000 \
b11011110000000000 5
b11011110000000000 @
b11011110000000000 E
1.
#224
0.
#225
b11100010000000000 :
b11100010000000000 =
b11100010000000000 Z
b1 K
b111 H
b0 1
b0 O
b0 V
b1110000 M
b1 J
b11100000000000000 5
b11100000000000000 @
b11100000000000000 E
b1110001 \
1.
#226
0.
#227
b11100100000000000 :
b11100100000000000 =
b11100100000000000 Z
b10 K
b1 1
b1 O
b1 V
b1110001 M
b0 J
b1110010 \
b11100010000000000 5
b11100010000000000 @
b11100010000000000 E
1.
#228
0.
#229
b11100110000000000 :
b11100110000000000 =
b11100110000000000 Z
b11 K
b0 1
b0 O
b0 V
b1110010 M
b1 J
b11100100000000000 5
b11100100000000000 @
b11100100000000000 E
b1110011 \
1.
#230
0.
#231
b11101000000000000 :
b11101000000000000 =
b11101000000000000 Z
b100 K
b1 1
b1 O
b1 V
b1110011 M
b0 J
b1110100 \
b11100110000000000 5
b11100110000000000 @
b11100110000000000 E
1.
#232
0.
