TB_vgadriver.vcd
$date
	Fri Apr  7 00:22:00 2017
$end
$version
	Icarus Verilog
$end
$timescale
	10ns
$end
$scope module TB_vgadriver $end
$var wire 1 ! VGA_VS $end
$var wire 1 " VGA_R $end
$var wire 1 # VGA_HS $end
$var wire 1 $ VGA_G $end
$var wire 1 % VGA_B $end
$var reg 1 & East $end
$var reg 1 ' North $end
$var reg 1 ( SW0 $end
$var reg 1 ) SW1 $end
$var reg 1 * SW2 $end
$var reg 1 + SW3 $end
$var reg 1 , South $end
$var reg 1 - West $end
$var reg 1 . change_button $end
$var reg 1 / clk_50 $end
$scope module UUT $end
$var wire 1 & East $end
$var wire 1 ' North $end
$var wire 1 ( SW0 $end
$var wire 1 ) SW1 $end
$var wire 1 * SW2 $end
$var wire 1 + SW3 $end
$var wire 1 , South $end
$var wire 1 - West $end
$var wire 1 . change_button $end
$var wire 1 / sysclk $end
$var wire 3 0 vram_index_in [2:0] $end
$var wire 3 1 vram_color_out [2:0] $end
$var wire 8 2 vram_addr_in [7:0] $end
$var wire 3 3 vga_color [2:0] $end
$var wire 22 4 vga_addr [21:0] $end
$var wire 1 5 func2_write $end
$var wire 4 6 func2_keys [3:0] $end
$var wire 3 7 func2_instruction [2:0] $end
$var wire 3 8 func2_color_out [2:0] $end
$var wire 22 9 func2_addr_in [21:0] $end
$var wire 1 : func1_write $end
$var wire 4 ; func1_keys [3:0] $end
$var wire 3 < func1_color_out [2:0] $end
$var wire 3 = func1_color [2:0] $end
$var wire 1 > bus_reset $end
$var wire 2 ? bus_current_function [1:0] $end
$var wire 1 ! VGA_VS $end
$var wire 1 " VGA_R $end
$var wire 1 # VGA_HS $end
$var wire 1 $ VGA_G $end
$var wire 1 % VGA_B $end
$scope module func1_keyproc $end
$var wire 1 / sysclk $end
$var wire 4 @ func1_keys [3:0] $end
$var reg 3 A color [2:0] $end
$var reg 1 : write $end
$upscope $end
$scope module func1_vram $end
$var wire 1 : write $end
$var wire 3 B write_color [2:0] $end
$var reg 3 C color [2:0] $end
$var reg 3 D read_color [2:0] $end
$upscope $end
$scope module func2_gpu $end
$var wire 1 / sysclk $end
$var wire 1 5 set $end
$var wire 3 E pixel_data [2:0] $end
$var wire 3 F instruction [2:0] $end
$var wire 22 G display_addr [21:0] $end
$var reg 8 H anime_pixel_index [7:0] $end
$var reg 3 I command [2:0] $end
$var reg 3 J current_image [2:0] $end
$var reg 4 K delay_counter [3:0] $end
$var reg 3 L display_data [2:0] $end
$var reg 11 M display_x [10:0] $end
$var reg 11 N display_y [10:0] $end
$var reg 3 O image_index [2:0] $end
$var reg 1 P is_display $end
$var reg 1 Q negative $end
$var reg 8 R pixel_addr [7:0] $end
$var reg 4 S pixel_x [3:0] $end
$var reg 4 T pixel_y [3:0] $end
$var reg 1 U state $end
$var reg 2 V trans_mode [1:0] $end
$upscope $end
$scope module func2_keyproc $end
$var wire 1 / sysclk $end
$var wire 4 W func2_keys [3:0] $end
$var reg 3 X instruction [2:0] $end
$var reg 1 5 write $end
$upscope $end
$scope module image_rom $end
$var wire 3 Y image_index [2:0] $end
$var wire 8 Z pixel_addr [7:0] $end
$var reg 3 [ current_image [2:0] $end
$var reg 3 \ pixel_data [2:0] $end
$upscope $end
$scope module keyboard_processor $end
$var wire 1 & East $end
$var wire 1 ' North $end
$var wire 1 ( SW0 $end
$var wire 1 ) SW1 $end
$var wire 1 * SW2 $end
$var wire 1 + SW3 $end
$var wire 1 , South $end
$var wire 1 - West $end
$var wire 1 . change_button $end
$var reg 2 ] current_function [1:0] $end
$var reg 4 ^ func1_instruction [3:0] $end
$var reg 4 _ func2_instruction [3:0] $end
$var reg 2 ` func_index [1:0] $end
$var reg 1 > reset $end
$upscope $end
$scope module switcher $end
$var wire 2 a current_function [1:0] $end
$var wire 3 b func1_color [2:0] $end
$var wire 3 c func2_color [2:0] $end
$var wire 22 d display_addr [21:0] $end
$var reg 3 e display_color [2:0] $end
$var reg 22 f func2_addr [21:0] $end
$upscope $end
$scope module vgaport $end
$var wire 1 % VGA_B $end
$var wire 1 $ VGA_G $end
$var wire 1 # VGA_HS $end
$var wire 1 " VGA_R $end
$var wire 1 ! VGA_VS $end
$var wire 1 g pclk $end
$var wire 3 h pixel_data [2:0] $end
$var wire 1 > rst $end
$var wire 1 / sysclk $end
$var reg 1 i count $end
$var reg 22 j pixel_addr [21:0] $end
$var reg 3 k pixel_rgb [2:0] $end
$var reg 11 l x_counter [10:0] $end
$var reg 11 m y_counter [10:0] $end
$upscope $end
$upscope $end
$upscope $end
$enddefinitions $end
#0
$dumpvars
b0 m
b0 l
b0 k
bx j
0i
b0 h
0g
bx f
b0 e
bx d
b111 c
b0 b
b0 a
b0 `
b0 _
b0 ^
b0 ]
b111 \
b0 [
b11111111 Z
b0 Y
b0 X
b0 W
b0 V
0U
b1111 T
b1111 S
b11111111 R
0Q
xP
b0 O
bx N
bx M
b111 L
b1111 K
b0 J
b0 I
b0 H
bx G
b0 F
b111 E
b0 D
b0 C
bx B
bx A
b0 @
b0 ?
0>
bx =
b0 <
b0 ;
x:
bx 9
b111 8
b0 7
b0 6
05
bx 4
b0 3
b11111111 2
b111 1
b0 0
0/
0.
0-
0,
0+
0*
0)
0(
0'
0&
0%
0$
1#
0"
1!
$end
#1
b1 l
b0 4
b0 d
b0 j
0:
1g
1i
1/
#2
0/
#3
0g
0i
1/
#4
b0 8
b0 L
b0 c
1P
b0 N
b0 M
b0 3
b0 e
b0 h
b0 9
b0 G
b0 f
b1 ?
b1 `
b1 a
b1 ]
0/
1.
#5
b1 M
b100000000000 9
b100000000000 G
b100000000000 f
b10 l
b100000000000 4
b100000000000 d
b100000000000 j
1g
1i
1/
#6
0/
0.
#7
0g
0i
1/
#8
0/
#9
b10 M
b1000000000000 9
b1000000000000 G
b1000000000000 f
b11 l
b1000000000000 4
b1000000000000 d
b1000000000000 j
1g
1i
1/
#10
0/
#11
15
b11 7
b11 F
b11 X
0g
0i
b10 6
b10 W
b10 _
1/
1'
#12
0/
#13
b11 M
b1100000000000 9
b1100000000000 G
b1100000000000 f
b100 l
b1100000000000 4
b1100000000000 d
b1100000000000 j
05
b0 7
b0 F
b0 X
b11 I
1g
1i
b0 6
b0 W
b0 _
1/
0'
#14
0/
#15
0g
0i
1/
#16
0/
#17
b100 M
b10000000000000 9
b10000000000000 G
b10000000000000 f
b101 l
b10000000000000 4
b10000000000000 d
b10000000000000 j
1g
1i
1/
#18
b1 6
b1 W
b1 _
0/
1,
#19
15
b100 7
b100 F
b100 X
0g
0i
1/
#20
b0 6
b0 W
b0 _
0/
0,
#21
b101 M
b10100000000000 9
b10100000000000 G
b10100000000000 f
b110 l
b10100000000000 4
b10100000000000 d
b10100000000000 j
05
b0 7
b0 F
b0 X
b1 V
b100 I
1g
1i
1/
#22
0/
#23
0g
0i
1/
#24
0/
#25
b110 M
b11000000000000 9
b11000000000000 G
b11000000000000 f
b111 l
b11000000000000 4
b11000000000000 d
b11000000000000 j
1g
1i
1/
#26
0/
#27
0g
0i
1/
#28
0/
#29
b111 M
0#
b11100000000000 9
b11100000000000 G
b11100000000000 f
b1000 l
b11100000000000 4
b11100000000000 d
b11100000000000 j
1g
1i
1/
#30
0/
#31
0g
0i
1/
#32
0/
#33
b1000 M
b100000000000000 9
b100000000000000 G
b100000000000000 f
b1001 l
b100000000000000 4
b100000000000000 d
b100000000000000 j
1g
1i
1/
#34
0/
#35
0g
0i
1/
#36
0/
#37
b1001 M
b100100000000000 9
b100100000000000 G
b100100000000000 f
b1010 l
b100100000000000 4
b100100000000000 d
b100100000000000 j
1g
1i
1/
#38
0/
#39
0g
0i
1/
#40
0/
#41
b1010 M
b101000000000000 9
b101000000000000 G
b101000000000000 f
b1011 l
b101000000000000 4
b101000000000000 d
b101000000000000 j
1g
1i
1/
#42
0/
#43
0g
0i
1/
#44
0/
#45
b1011 M
b101100000000000 9
b101100000000000 G
b101100000000000 f
b1100 l
b101100000000000 4
b101100000000000 d
b101100000000000 j
1g
1i
1/
#46
0/
#47
0g
0i
1/
#48
0/
#49
b1100 M
b110000000000000 9
b110000000000000 G
b110000000000000 f
b1101 l
b110000000000000 4
b110000000000000 d
b110000000000000 j
1g
1i
1/
#50
0/
#51
0g
0i
1/
#52
0/
#53
b1101 M
b110100000000000 9
b110100000000000 G
b110100000000000 f
b1110 l
b110100000000000 4
b110100000000000 d
b110100000000000 j
1g
1i
1/
#54
0/
#55
0g
0i
1/
#56
0/
#57
b1110 M
b111000000000000 9
b111000000000000 G
b111000000000000 f
b1111 l
b111000000000000 4
b111000000000000 d
b111000000000000 j
1g
1i
1/
#58
0/
#59
0g
0i
1/
#60
0/
#61
b1111 M
b111100000000000 9
b111100000000000 G
b111100000000000 f
b10000 l
b111100000000000 4
b111100000000000 d
b111100000000000 j
1g
1i
1/
#62
0/
#63
0g
0i
1/
#64
0/
#65
b10000 M
b1000000000000000 9
b1000000000000000 G
b1000000000000000 f
b10001 l
b1000000000000000 4
b1000000000000000 d
b1000000000000000 j
1g
1i
1/
#66
0/
#67
0g
0i
1/
#68
0/
#69
b10001 M
b1000100000000000 9
b1000100000000000 G
b1000100000000000 f
b10010 l
b1000100000000000 4
b1000100000000000 d
b1000100000000000 j
1g
1i
1/
#70
0/
#71
0g
0i
1/
#72
0/
#73
b10010 M
b1001000000000000 9
b1001000000000000 G
b1001000000000000 f
b10011 l
b1001000000000000 4
b1001000000000000 d
b1001000000000000 j
1g
1i
1/
#74
0/
#75
0g
0i
1/
#76
0/
#77
b10011 M
b1001100000000000 9
b1001100000000000 G
b1001100000000000 f
b10100 l
b1001100000000000 4
b1001100000000000 d
b1001100000000000 j
1g
1i
1/
#78
0/
#79
0g
0i
1/
#80
0/
#81
b10100 M
b1010000000000000 9
b1010000000000000 G
b1010000000000000 f
b10101 l
b1010000000000000 4
b1010000000000000 d
b1010000000000000 j
1g
1i
1/
#82
0/
#83
0g
0i
1/
#84
0/
#85
b10101 M
b1010100000000000 9
b1010100000000000 G
b1010100000000000 f
b10110 l
b1010100000000000 4
b1010100000000000 d
b1010100000000000 j
1g
1i
1/
#86
0/
#87
0g
0i
1/
#88
0/
#89
b10110 M
b1011000000000000 9
b1011000000000000 G
b1011000000000000 f
b10111 l
b1011000000000000 4
b1011000000000000 d
b1011000000000000 j
1g
1i
1/
#90
0/
#91
0g
0i
1/
#92
0/
#93
b10111 M
b1011100000000000 9
b1011100000000000 G
b1011100000000000 f
b11000 l
b1011100000000000 4
b1011100000000000 d
b1011100000000000 j
1g
1i
1/
#94
0/
#95
0g
0i
1/
#96
0/
#97
b11000 M
b1100000000000000 9
b1100000000000000 G
b1100000000000000 f
b11001 l
b1100000000000000 4
b1100000000000000 d
b1100000000000000 j
1g
1i
1/
#98
0/
#99
0g
0i
1/
#100
0/
#101
b11001 M
b1100100000000000 9
b1100100000000000 G
b1100100000000000 f
b11010 l
b1100100000000000 4
b1100100000000000 d
b1100100000000000 j
1g
1i
1/
#102
0/
#103
0g
0i
1/
#104
0/
#105
b11010 M
b1101000000000000 9
b1101000000000000 G
b1101000000000000 f
b11011 l
b1101000000000000 4
b1101000000000000 d
b1101000000000000 j
1g
1i
1/
#106
0/
#107
0g
0i
1/
#108
0/
#109
b11011 M
b1101100000000000 9
b1101100000000000 G
b1101100000000000 f
b11100 l
b1101100000000000 4
b1101100000000000 d
b1101100000000000 j
1g
1i
1/
#110
0/
#111
0g
0i
1/
#112
0/
#113
b11100 M
b1110000000000000 9
b1110000000000000 G
b1110000000000000 f
b11101 l
b1110000000000000 4
b1110000000000000 d
b1110000000000000 j
1g
1i
1/
#114
0/
#115
0g
0i
1/
#116
0/
#117
b11101 M
b1110100000000000 9
b1110100000000000 G
b1110100000000000 f
b11110 l
b1110100000000000 4
b1110100000000000 d
b1110100000000000 j
1g
1i
1/
#118
0/
#119
0g
0i
1/
#120
0/
#121
b11110 M
b1111000000000000 9
b1111000000000000 G
b1111000000000000 f
b11111 l
b1111000000000000 4
b1111000000000000 d
b1111000000000000 j
1g
1i
1/
#122
0/
#123
0g
0i
1/
#124
0/
#125
b11111 M
b1111100000000000 9
b1111100000000000 G
b1111100000000000 f
b100000 l
b1111100000000000 4
b1111100000000000 d
b1111100000000000 j
1g
1i
1/
#126
0/
#127
0g
0i
1/
#128
0/
#129
b100000 M
b10000000000000000 9
b10000000000000000 G
b10000000000000000 f
b100001 l
b10000000000000000 4
b10000000000000000 d
b10000000000000000 j
1g
1i
1/
#130
0/
#131
0g
0i
1/
#132
0/
#133
b100001 M
b10000100000000000 9
b10000100000000000 G
b10000100000000000 f
b100010 l
b10000100000000000 4
b10000100000000000 d
b10000100000000000 j
1g
1i
1/
#134
0/
#135
0g
0i
1/
#136
0/
#137
b100010 M
b10001000000000000 9
b10001000000000000 G
b10001000000000000 f
b100011 l
b10001000000000000 4
b10001000000000000 d
b10001000000000000 j
1g
1i
1/
#138
0/
#139
0g
0i
1/
#140
0/
#141
b100011 M
b10001100000000000 9
b10001100000000000 G
b10001100000000000 f
b100100 l
b10001100000000000 4
b10001100000000000 d
b10001100000000000 j
1g
1i
1/
#142
0/
#143
0g
0i
1/
#144
0/
#145
b100100 M
b10010000000000000 9
b10010000000000000 G
b10010000000000000 f
b100101 l
b10010000000000000 4
b10010000000000000 d
b10010000000000000 j
1g
1i
1/
#146
0/
#147
0g
0i
1/
#148
0/
#149
b100101 M
b10010100000000000 9
b10010100000000000 G
b10010100000000000 f
b100110 l
b10010100000000000 4
b10010100000000000 d
b10010100000000000 j
1g
1i
1/
#150
0/
#151
0g
0i
1/
#152
0/
#153
b100110 M
b10011000000000000 9
b10011000000000000 G
b10011000000000000 f
b100111 l
b10011000000000000 4
b10011000000000000 d
b10011000000000000 j
1g
1i
1/
#154
0/
#155
0g
0i
1/
#156
0/
#157
b100111 M
b10011100000000000 9
b10011100000000000 G
b10011100000000000 f
b101000 l
b10011100000000000 4
b10011100000000000 d
b10011100000000000 j
1g
1i
1/
#158
0/
#159
0g
0i
1/
#160
0/
#161
b101000 M
b10100000000000000 9
b10100000000000000 G
b10100000000000000 f
b101001 l
b10100000000000000 4
b10100000000000000 d
b10100000000000000 j
1g
1i
1/
#162
0/
#163
0g
0i
1/
#164
0/
#165
b101001 M
b10100100000000000 9
b10100100000000000 G
b10100100000000000 f
b101010 l
b10100100000000000 4
b10100100000000000 d
b10100100000000000 j
1g
1i
1/
#166
0/
#167
0g
0i
1/
#168
0/
#169
b101010 M
b10101000000000000 9
b10101000000000000 G
b10101000000000000 f
b101011 l
b10101000000000000 4
b10101000000000000 d
b10101000000000000 j
1g
1i
1/
#170
0/
#171
0g
0i
1/
#172
0/
#173
b101011 M
b10101100000000000 9
b10101100000000000 G
b10101100000000000 f
b101100 l
b10101100000000000 4
b10101100000000000 d
b10101100000000000 j
1g
1i
1/
#174
0/
#175
0g
0i
1/
#176
0/
#177
b101100 M
b10110000000000000 9
b10110000000000000 G
b10110000000000000 f
b101101 l
b10110000000000000 4
b10110000000000000 d
b10110000000000000 j
1g
1i
1/
#178
0/
#179
0g
0i
1/
#180
0/
#181
b101101 M
b10110100000000000 9
b10110100000000000 G
b10110100000000000 f
b101110 l
b10110100000000000 4
b10110100000000000 d
b10110100000000000 j
1g
1i
1/
#182
0/
#183
0g
0i
1/
#184
0/
#185
b101110 M
b10111000000000000 9
b10111000000000000 G
b10111000000000000 f
b101111 l
b10111000000000000 4
b10111000000000000 d
b10111000000000000 j
1g
1i
1/
#186
0/
#187
0g
0i
1/
#188
0/
#189
b101111 M
b10111100000000000 9
b10111100000000000 G
b10111100000000000 f
b110000 l
b10111100000000000 4
b10111100000000000 d
b10111100000000000 j
1g
1i
1/
#190
0/
#191
0g
0i
1/
#192
0/
#193
b110000 M
b11000000000000000 9
b11000000000000000 G
b11000000000000000 f
b110001 l
b11000000000000000 4
b11000000000000000 d
b11000000000000000 j
1g
1i
1/
#194
0/
#195
0g
0i
1/
#196
0/
#197
b110001 M
b11000100000000000 9
b11000100000000000 G
b11000100000000000 f
b110010 l
b11000100000000000 4
b11000100000000000 d
b11000100000000000 j
1g
1i
1/
#198
0/
#199
0g
0i
1/
#200
0/
#201
b110010 M
b11001000000000000 9
b11001000000000000 G
b11001000000000000 f
b110011 l
b11001000000000000 4
b11001000000000000 d
b11001000000000000 j
1g
1i
1/
#202
0/
#203
0g
0i
1/
#204
0/
#205
b110011 M
b11001100000000000 9
b11001100000000000 G
b11001100000000000 f
b110100 l
b11001100000000000 4
b11001100000000000 d
b11001100000000000 j
1g
1i
1/
#206
0/
#207
0g
0i
1/
#208
0/
#209
b110100 M
b11010000000000000 9
b11010000000000000 G
b11010000000000000 f
b110101 l
b11010000000000000 4
b11010000000000000 d
b11010000000000000 j
1g
1i
1/
#210
0/
#211
0g
0i
1/
#212
0/
#213
b110101 M
b11010100000000000 9
b11010100000000000 G
b11010100000000000 f
b110110 l
b11010100000000000 4
b11010100000000000 d
b11010100000000000 j
1g
1i
1/
#214
0/
#215
0g
0i
1/
#216
0/
#217
b110110 M
b11011000000000000 9
b11011000000000000 G
b11011000000000000 f
b110111 l
b11011000000000000 4
b11011000000000000 d
b11011000000000000 j
1g
1i
1/
#218
0/
#219
0g
0i
1/
#220
0/
#221
b110111 M
b11011100000000000 9
b11011100000000000 G
b11011100000000000 f
b111000 l
b11011100000000000 4
b11011100000000000 d
b11011100000000000 j
1g
1i
1/
#222
0/
#223
0g
0i
1/
#224
0/
#225
b111000 M
b11100000000000000 9
b11100000000000000 G
b11100000000000000 f
b111001 l
b11100000000000000 4
b11100000000000000 d
b11100000000000000 j
1g
1i
1/
#226
0/
#227
0g
0i
1/
#228
0/
#229
b111001 M
b11100100000000000 9
b11100100000000000 G
b11100100000000000 f
b111010 l
b11100100000000000 4
b11100100000000000 d
b11100100000000000 j
1g
1i
1/
#230
0/
#231
0g
0i
1/
#232
0/
#233
b111010 M
b11101000000000000 9
b11101000000000000 G
b11101000000000000 f
b111011 l
b11101000000000000 4
b11101000000000000 d
b11101000000000000 j
1g
1i
1/
#234
0/
#235
0g
0i
1/
#236
0/
#237
b111011 M
b11101100000000000 9
b11101100000000000 G
b11101100000000000 f
b111100 l
b11101100000000000 4
b11101100000000000 d
b11101100000000000 j
1g
1i
1/
#238
0/
#239
0g
0i
1/
#240
0/
#241
b111100 M
b11110000000000000 9
b11110000000000000 G
b11110000000000000 f
b111101 l
b11110000000000000 4
b11110000000000000 d
b11110000000000000 j
1g
1i
1/
#242
0/
#243
0g
0i
1/
#244
0/
#245
b111101 M
b11110100000000000 9
b11110100000000000 G
b11110100000000000 f
b111110 l
b11110100000000000 4
b11110100000000000 d
b11110100000000000 j
1g
1i
1/
#246
0/
#247
0g
0i
1/
#248
0/
#249
b111110 M
b11111000000000000 9
b11111000000000000 G
b11111000000000000 f
b111111 l
b11111000000000000 4
b11111000000000000 d
b11111000000000000 j
1g
1i
1/
#250
0/
#251
0g
0i
1/
#252
0/
#253
b111111 M
b11111100000000000 9
b11111100000000000 G
b11111100000000000 f
b1000000 l
b11111100000000000 4
b11111100000000000 d
b11111100000000000 j
1g
1i
1/
#254
0/
#255
0g
0i
1/
#256
0/
#257
b1000000 M
b100000000000000000 9
b100000000000000000 G
b100000000000000000 f
b1000001 l
b100000000000000000 4
b100000000000000000 d
b100000000000000000 j
1g
1i
1/
#258
0/
#259
0g
0i
1/
#260
0/
#261
b1000001 M
b100000100000000000 9
b100000100000000000 G
b100000100000000000 f
b1000010 l
b100000100000000000 4
b100000100000000000 d
b100000100000000000 j
1g
1i
1/
#262
0/
#263
0g
0i
1/
#264
0/
#265
b1000010 M
b100001000000000000 9
b100001000000000000 G
b100001000000000000 f
b1000011 l
b100001000000000000 4
b100001000000000000 d
b100001000000000000 j
1g
1i
1/
#266
0/
#267
0g
0i
1/
#268
0/
#269
b1000011 M
b100001100000000000 9
b100001100000000000 G
b100001100000000000 f
b1000100 l
b100001100000000000 4
b100001100000000000 d
b100001100000000000 j
1g
1i
1/
#270
0/
#271
0g
0i
1/
#272
0/
#273
b1000100 M
b100010000000000000 9
b100010000000000000 G
b100010000000000000 f
b1000101 l
b100010000000000000 4
b100010000000000000 d
b100010000000000000 j
1g
1i
1/
#274
0/
#275
0g
0i
1/
#276
0/
#277
b1000101 M
b100010100000000000 9
b100010100000000000 G
b100010100000000000 f
b1000110 l
b100010100000000000 4
b100010100000000000 d
b100010100000000000 j
1g
1i
1/
#278
0/
#279
0g
0i
1/
#280
0/
#281
b1000110 M
b100011000000000000 9
b100011000000000000 G
b100011000000000000 f
b1000111 l
b100011000000000000 4
b100011000000000000 d
b100011000000000000 j
1g
1i
1/
#282
0/
#283
0g
0i
1/
#284
0/
#285
b1000111 M
b100011100000000000 9
b100011100000000000 G
b100011100000000000 f
b1001000 l
b100011100000000000 4
b100011100000000000 d
b100011100000000000 j
1g
1i
1/
#286
0/
#287
0g
0i
1/
#288
0/
#289
b1001000 M
b100100000000000000 9
b100100000000000000 G
b100100000000000000 f
b1001001 l
b100100000000000000 4
b100100000000000000 d
b100100000000000000 j
1g
1i
1/
#290
0/
#291
0g
0i
1/
#292
0/
#293
b1001001 M
b100100100000000000 9
b100100100000000000 G
b100100100000000000 f
b1001010 l
b100100100000000000 4
b100100100000000000 d
b100100100000000000 j
1g
1i
1/
#294
0/
#295
0g
0i
1/
#296
0/
#297
b1001010 M
b100101000000000000 9
b100101000000000000 G
b100101000000000000 f
b1001011 l
b100101000000000000 4
b100101000000000000 d
b100101000000000000 j
1g
1i
1/
#298
0/
#299
0g
0i
1/
#300
0/
#301
b1001011 M
b100101100000000000 9
b100101100000000000 G
b100101100000000000 f
b1001100 l
b100101100000000000 4
b100101100000000000 d
b100101100000000000 j
1g
1i
1/
#302
0/
#303
0g
0i
1/
#304
0/
#305
b1001100 M
b100110000000000000 9
b100110000000000000 G
b100110000000000000 f
b1001101 l
b100110000000000000 4
b100110000000000000 d
b100110000000000000 j
1g
1i
1/
#306
0/
#307
0g
0i
1/
#308
0/
#309
b1001101 M
b100110100000000000 9
b100110100000000000 G
b100110100000000000 f
b1001110 l
b100110100000000000 4
b100110100000000000 d
b100110100000000000 j
1g
1i
1/
#310
0/
#311
0g
0i
1/
#312
0/
#313
b1001110 M
b100111000000000000 9
b100111000000000000 G
b100111000000000000 f
b1001111 l
b100111000000000000 4
b100111000000000000 d
b100111000000000000 j
1g
1i
1/
#314
0/
#315
0g
0i
1/
#316
0/
#317
b1001111 M
b100111100000000000 9
b100111100000000000 G
b100111100000000000 f
b1010000 l
b100111100000000000 4
b100111100000000000 d
b100111100000000000 j
1g
1i
1/
#318
0/
#319
0g
0i
1/
#320
0/
#321
b1010000 M
b101000000000000000 9
b101000000000000000 G
b101000000000000000 f
b1010001 l
b101000000000000000 4
b101000000000000000 d
b101000000000000000 j
1g
1i
1/
#322
0/
#323
0g
0i
1/
#324
0/
#325
b1010001 M
b101000100000000000 9
b101000100000000000 G
b101000100000000000 f
b1010010 l
b101000100000000000 4
b101000100000000000 d
b101000100000000000 j
1g
1i
1/
#326
0/
#327
0g
0i
1/
#328
0/
#329
b1010010 M
b101001000000000000 9
b101001000000000000 G
b101001000000000000 f
b1010011 l
b101001000000000000 4
b101001000000000000 d
b101001000000000000 j
1g
1i
1/
#330
0/
#331
0g
0i
1/
#332
0/
#333
b1010011 M
b101001100000000000 9
b101001100000000000 G
b101001100000000000 f
b1010100 l
b101001100000000000 4
b101001100000000000 d
b101001100000000000 j
1g
1i
1/
#334
0/
#335
0g
0i
1/
#336
0/
#337
b1010100 M
b101010000000000000 9
b101010000000000000 G
b101010000000000000 f
b1010101 l
b101010000000000000 4
b101010000000000000 d
b101010000000000000 j
1g
1i
1/
#338
0/
#339
0g
0i
1/
#340
0/
#341
b1010101 M
b101010100000000000 9
b101010100000000000 G
b101010100000000000 f
b1010110 l
b101010100000000000 4
b101010100000000000 d
b101010100000000000 j
1g
1i
1/
#342
0/
#343
0g
0i
1/
#344
0/
#345
b1010110 M
b101011000000000000 9
b101011000000000000 G
b101011000000000000 f
b1010111 l
b101011000000000000 4
b101011000000000000 d
b101011000000000000 j
1g
1i
1/
#346
0/
#347
0g
0i
1/
#348
0/
#349
b1010111 M
b101011100000000000 9
b101011100000000000 G
b101011100000000000 f
b1011000 l
b101011100000000000 4
b101011100000000000 d
b101011100000000000 j
1g
1i
1/
#350
0/
#351
0g
0i
1/
#352
0/
#353
b1011000 M
b101100000000000000 9
b101100000000000000 G
b101100000000000000 f
b1011001 l
b101100000000000000 4
b101100000000000000 d
b101100000000000000 j
1g
1i
1/
#354
0/
#355
0g
0i
1/
#356
0/
#357
b1011001 M
b101100100000000000 9
b101100100000000000 G
b101100100000000000 f
b1011010 l
b101100100000000000 4
b101100100000000000 d
b101100100000000000 j
1g
1i
1/
#358
0/
#359
0g
0i
1/
#360
0/
#361
b1011010 M
b101101000000000000 9
b101101000000000000 G
b101101000000000000 f
b1011011 l
b101101000000000000 4
b101101000000000000 d
b101101000000000000 j
1g
1i
1/
#362
0/
#363
0g
0i
1/
#364
0/
#365
b1011011 M
b101101100000000000 9
b101101100000000000 G
b101101100000000000 f
b1011100 l
b101101100000000000 4
b101101100000000000 d
b101101100000000000 j
1g
1i
1/
#366
0/
#367
0g
0i
1/
#368
0/
#369
b1011100 M
b101110000000000000 9
b101110000000000000 G
b101110000000000000 f
b1011101 l
b101110000000000000 4
b101110000000000000 d
b101110000000000000 j
1g
1i
1/
#370
0/
#371
0g
0i
1/
#372
0/
#373
b1011101 M
b101110100000000000 9
b101110100000000000 G
b101110100000000000 f
b1011110 l
b101110100000000000 4
b101110100000000000 d
b101110100000000000 j
1g
1i
1/
#374
0/
#375
0g
0i
1/
#376
0/
#377
b1011110 M
b101111000000000000 9
b101111000000000000 G
b101111000000000000 f
b1011111 l
b101111000000000000 4
b101111000000000000 d
b101111000000000000 j
1g
1i
1/
#378
0/
#379
0g
0i
1/
#380
0/
#381
b1011111 M
b101111100000000000 9
b101111100000000000 G
b101111100000000000 f
b1100000 l
b101111100000000000 4
b101111100000000000 d
b101111100000000000 j
1g
1i
1/
#382
0/
#383
0g
0i
1/
#384
0/
#385
b1100000 M
b110000000000000000 9
b110000000000000000 G
b110000000000000000 f
b1100001 l
b110000000000000000 4
b110000000000000000 d
b110000000000000000 j
1g
1i
1/
#386
0/
#387
0g
0i
1/
#388
0/
#389
b1100001 M
b110000100000000000 9
b110000100000000000 G
b110000100000000000 f
b1100010 l
b110000100000000000 4
b110000100000000000 d
b110000100000000000 j
1g
1i
1/
#390
0/
#391
0g
0i
1/
#392
0/
#393
b1100010 M
b110001000000000000 9
b110001000000000000 G
b110001000000000000 f
b1100011 l
b110001000000000000 4
b110001000000000000 d
b110001000000000000 j
1g
1i
1/
#394
0/
#395
0g
0i
1/
#396
0/
#397
b1100011 M
b110001100000000000 9
b110001100000000000 G
b110001100000000000 f
b1100100 l
b110001100000000000 4
b110001100000000000 d
b110001100000000000 j
1g
1i
1/
#398
0/
#399
0g
0i
1/
#400
0/
#401
b1100100 M
b110010000000000000 9
b110010000000000000 G
b110010000000000000 f
b1100101 l
b110010000000000000 4
b110010000000000000 d
b110010000000000000 j
1g
1i
1/
#402
0/
#403
0g
0i
1/
#404
0/
#405
b1100101 M
b110010100000000000 9
b110010100000000000 G
b110010100000000000 f
b1100110 l
b110010100000000000 4
b110010100000000000 d
b110010100000000000 j
1g
1i
1/
#406
0/
#407
0g
0i
1/
#408
0/
#409
b1100110 M
b110011000000000000 9
b110011000000000000 G
b110011000000000000 f
b1100111 l
b110011000000000000 4
b110011000000000000 d
b110011000000000000 j
1g
1i
1/
#410
0/
#411
0g
0i
1/
#412
0/
#413
b1100111 M
1#
b110011100000000000 9
b110011100000000000 G
b110011100000000000 f
b1101000 l
b110011100000000000 4
b110011100000000000 d
b110011100000000000 j
1g
1i
1/
#414
0/
#415
0g
0i
1/
#416
0/
#417
b1101000 M
b110100000000000000 9
b110100000000000000 G
b110100000000000000 f
b1101001 l
b110100000000000000 4
b110100000000000000 d
b110100000000000000 j
1g
1i
1/
#418
0/
#419
0g
0i
1/
#420
0/
#421
b1101001 M
b110100100000000000 9
b110100100000000000 G
b110100100000000000 f
b1101010 l
b110100100000000000 4
b110100100000000000 d
b110100100000000000 j
1g
1i
1/
#422
0/
#423
0g
0i
1/
#424
0/
#425
b1101010 M
b110101000000000000 9
b110101000000000000 G
b110101000000000000 f
b1101011 l
b110101000000000000 4
b110101000000000000 d
b110101000000000000 j
1g
1i
1/
#426
0/
#427
0g
0i
1/
#428
0/
#429
b1101011 M
b110101100000000000 9
b110101100000000000 G
b110101100000000000 f
b1101100 l
b110101100000000000 4
b110101100000000000 d
b110101100000000000 j
1g
1i
1/
#430
0/
#431
0g
0i
1/
#432
0/
#433
b1101100 M
b110110000000000000 9
b110110000000000000 G
b110110000000000000 f
b1101101 l
b110110000000000000 4
b110110000000000000 d
b110110000000000000 j
1g
1i
1/
#434
0/
#435
0g
0i
1/
#436
0/
#437
b1101101 M
b110110100000000000 9
b110110100000000000 G
b110110100000000000 f
b1101110 l
b110110100000000000 4
b110110100000000000 d
b110110100000000000 j
1g
1i
1/
#438
0/
#439
0g
0i
1/
#440
0/
#441
b1101110 M
b110111000000000000 9
b110111000000000000 G
b110111000000000000 f
b1101111 l
b110111000000000000 4
b110111000000000000 d
b110111000000000000 j
1g
1i
1/
#442
0/
#443
0g
0i
1/
#444
0/
#445
b1101111 M
b110111100000000000 9
b110111100000000000 G
b110111100000000000 f
b1110000 l
b110111100000000000 4
b110111100000000000 d
b110111100000000000 j
1g
1i
1/
#446
0/
#447
0g
0i
1/
#448
0/
