TB_vgadriver.vcd
$date
	Mon Apr 03 09:07:54 2017
$end
$version
	Icarus Verilog
$end
$timescale
	10ns
$end
$scope module TB_vgadriver $end
$var wire 1 ! VGA_VS $end
$var wire 1 " VGA_R $end
$var wire 1 # VGA_HS $end
$var wire 1 $ VGA_G $end
$var wire 1 % VGA_B $end
$var reg 1 & B $end
$var reg 1 ' East $end
$var reg 1 ( G $end
$var reg 1 ) North $end
$var reg 1 * R $end
$var reg 1 + South $end
$var reg 1 , West $end
$var reg 1 - change_button $end
$var reg 1 . clk_50 $end
$var reg 1 / set $end
$scope module UUT $end
$var wire 1 & B $end
$var wire 1 ' East $end
$var wire 1 ( G $end
$var wire 1 ) North $end
$var wire 1 * R $end
$var wire 1 + South $end
$var wire 1 , West $end
$var wire 1 - change_button $end
$var wire 1 / set $end
$var wire 1 . sysclk $end
$var wire 1 0 f2_keyproc_set $end
$var wire 3 1 f2_instruction [2:0] $end
$var wire 3 2 f2_image_index [2:0] $end
$var wire 3 3 f2_gpu_read_color [2:0] $end
$var wire 8 4 f2_gpu_read_addr [7:0] $end
$var wire 3 5 f2_gpu_display_color [2:0] $end
$var wire 20 6 f2_gpu_display_addr [19:0] $end
$var wire 3 7 f1_vram_read_color [2:0] $end
$var wire 1 8 f1_keyproc_write $end
$var wire 3 9 f1_keyproc_color [2:0] $end
$var wire 3 : container_write_color [2:0] $end
$var wire 20 ; container_read_addr [19:0] $end
$var wire 1 ! VGA_VS $end
$var wire 1 " VGA_R $end
$var wire 1 # VGA_HS $end
$var wire 1 $ VGA_G $end
$var wire 1 % VGA_B $end
$scope module container $end
$var wire 1 - change_button $end
$var wire 1 . sysclk $end
$var wire 3 < f2_gpu_display_color [2:0] $end
$var wire 3 = f1_vram_read [2:0] $end
$var wire 20 > display_addr [19:0] $end
$var reg 2 ? current_function [1:0] $end
$var reg 3 @ display_color [2:0] $end
$var reg 20 A f2_gpu_display_addr [19:0] $end
$upscope $end
$scope module function1_keyproc $end
$var wire 1 & B $end
$var wire 1 ( G $end
$var wire 1 * R $end
$var wire 1 / set $end
$var wire 1 . sysclk $end
$var reg 3 B color [2:0] $end
$var reg 1 8 write $end
$upscope $end
$scope module function1_vram $end
$var wire 1 8 write $end
$var wire 3 C write_color [2:0] $end
$var reg 3 D color [2:0] $end
$var reg 3 E read_color [2:0] $end
$upscope $end
$scope module function2_gpu $end
$var wire 20 F display_addr [19:0] $end
$var wire 1 . sysclk $end
$var wire 1 0 set $end
$var wire 3 G pixel_data [2:0] $end
$var wire 3 H instruction [2:0] $end
$var reg 8 I anime_pixel_index [7:0] $end
$var reg 3 J command [2:0] $end
$var reg 3 K current_image [2:0] $end
$var reg 4 L delay_counter [3:0] $end
$var reg 3 M display_data [2:0] $end
$var reg 10 N display_x [9:0] $end
$var reg 10 O display_y [9:0] $end
$var reg 3 P image_index [2:0] $end
$var reg 1 Q negative $end
$var reg 8 R pixel_addr [7:0] $end
$var reg 4 S pixel_x [3:0] $end
$var reg 4 T pixel_y [3:0] $end
$var reg 1 U state $end
$var reg 2 V trans_mode [1:0] $end
$upscope $end
$scope module function2_keyproc $end
$var wire 1 ' East $end
$var wire 1 ) North $end
$var wire 1 + South $end
$var wire 1 , West $end
$var wire 1 . sysclk $end
$var reg 3 W instruction [2:0] $end
$var reg 1 0 set $end
$upscope $end
$scope module image_rom $end
$var wire 3 X image_index [2:0] $end
$var wire 8 Y pixel_addr [7:0] $end
$var reg 3 Z pixel_data [2:0] $end
$upscope $end
$scope module vgaport $end
$var wire 1 # VGA_HS $end
$var wire 1 ! VGA_VS $end
$var wire 3 [ pixel_data [2:0] $end
$var wire 1 . sysclk $end
$var wire 1 " VGA_R $end
$var wire 1 $ VGA_G $end
$var wire 1 % VGA_B $end
$var reg 20 \ pixel_addr [19:0] $end
$var reg 3 ] pixel_rgb [2:0] $end
$var reg 10 ^ x_counter [9:0] $end
$var reg 10 _ y_counter [9:0] $end
$upscope $end
$upscope $end
$upscope $end
$enddefinitions $end
#0
$dumpvars
b0 _
b0 ^
bx ]
b0 \
bx [
b111 Z
b11110001 Y
b0 X
b0 W
b0 V
0U
b1 T
b1111 S
b11110001 R
0Q
b0 P
bx O
bx N
b111 M
b1111 L
b0 K
b0 J
b0 I
b0 H
b111 G
bx F
b0 E
b0 D
bx C
bx B
bx A
bx @
b0 ?
b0 >
b0 =
b111 <
b0 ;
bx :
bx 9
x8
b0 7
bx 6
b111 5
b11110001 4
b111 3
b0 2
b0 1
00
0/
0.
0-
0,
0+
0*
0)
0(
0'
0&
x%
x$
0#
x"
0!
$end
#1
0"
0$
0%
b10000000000 ;
b10000000000 >
b10000000000 \
b0 ]
08
b0 :
b0 @
b0 [
b1 ^
1.
#2
0.
#3
b100000000000 ;
b100000000000 >
b100000000000 \
b10 ^
1.
#4
0.
1-
#5
b110000000000 ;
b110000000000 >
b110000000000 \
b0 4
b0 R
b0 Y
b0 T
b0 S
b0 O
b10 N
b100000000000 6
b100000000000 A
b100000000000 F
b1 ?
b11 ^
1.
#6
0.
0-
#7
b1000000000000 ;
b1000000000000 >
b1000000000000 \
b11 N
b100 ^
b110000000000 6
b110000000000 A
b110000000000 F
1.
#8
0.
#9
b1010000000000 ;
b1010000000000 >
b1010000000000 \
b100 N
b1000000000000 6
b1000000000000 A
b1000000000000 F
b101 ^
1.
#10
0.
#11
b1111 4
b1111 R
b1111 Y
b1 V
0U
b11 J
b1100000000000 ;
b1100000000000 >
b1100000000000 \
10
b11 1
b11 H
b11 W
b101 N
b110 ^
b1010000000000 6
b1010000000000 A
b1010000000000 F
1.
1)
#12
0.
#13
b1110000000000 ;
b1110000000000 >
b1110000000000 \
00
b0 1
b0 H
b0 W
b110 N
b1100000000000 6
b1100000000000 A
b1100000000000 F
b111 ^
1.
0)
#14
0.
#15
b10000000000000 ;
b10000000000000 >
b10000000000000 \
1#
b111 N
b1000 ^
b1110000000000 6
b1110000000000 A
b1110000000000 F
1.
#16
0.
#17
b10010000000000 ;
b10010000000000 >
b10010000000000 \
b1000 N
b10000000000000 6
b10000000000000 A
b10000000000000 F
b1001 ^
1.
#18
0.
1+
#19
b0 5
b0 <
b0 M
1Q
0U
b100 J
b10100000000000 ;
b10100000000000 >
b10100000000000 \
10
b100 1
b100 H
b100 W
b1001 N
b1010 ^
b10010000000000 6
b10010000000000 A
b10010000000000 F
1.
#20
0.
0+
#21
b10110000000000 ;
b10110000000000 >
b10110000000000 \
00
b0 1
b0 H
b0 W
b1010 N
b10100000000000 6
b10100000000000 A
b10100000000000 F
b1011 ^
1.
#22
0.
#23
b11000000000000 ;
b11000000000000 >
b11000000000000 \
b1011 N
b1100 ^
b10110000000000 6
b10110000000000 A
b10110000000000 F
1.
#24
0.
#25
b11010000000000 ;
b11010000000000 >
b11010000000000 \
b1100 N
b11000000000000 6
b11000000000000 A
b11000000000000 F
b1101 ^
1.
#26
0.
#27
b11100000000000 ;
b11100000000000 >
b11100000000000 \
b1101 N
b1110 ^
b11010000000000 6
b11010000000000 A
b11010000000000 F
1.
#28
0.
#29
b11110000000000 ;
b11110000000000 >
b11110000000000 \
b1110 N
b11100000000000 6
b11100000000000 A
b11100000000000 F
b1111 ^
1.
#30
0.
#31
b100000000000000 ;
b100000000000000 >
b100000000000000 \
b1111 N
b10000 ^
b11110000000000 6
b11110000000000 A
b11110000000000 F
1.
#32
0.
#33
b100010000000000 ;
b100010000000000 >
b100010000000000 \
b10000 N
b100000000000000 6
b100000000000000 A
b100000000000000 F
b10001 ^
1.
#34
0.
#35
b100100000000000 ;
b100100000000000 >
b100100000000000 \
b10001 N
b10010 ^
b100010000000000 6
b100010000000000 A
b100010000000000 F
1.
#36
0.
#37
b100110000000000 ;
b100110000000000 >
b100110000000000 \
b10010 N
b100100000000000 6
b100100000000000 A
b100100000000000 F
b10011 ^
1.
#38
0.
#39
b101000000000000 ;
b101000000000000 >
b101000000000000 \
b10011 N
b10100 ^
b100110000000000 6
b100110000000000 A
b100110000000000 F
1.
#40
0.
#41
b101010000000000 ;
b101010000000000 >
b101010000000000 \
b10100 N
b101000000000000 6
b101000000000000 A
b101000000000000 F
b10101 ^
1.
#42
0.
#43
b101100000000000 ;
b101100000000000 >
b101100000000000 \
b10101 N
b10110 ^
b101010000000000 6
b101010000000000 A
b101010000000000 F
1.
#44
0.
#45
b101110000000000 ;
b101110000000000 >
b101110000000000 \
b10110 N
b101100000000000 6
b101100000000000 A
b101100000000000 F
b10111 ^
1.
#46
0.
#47
b110000000000000 ;
b110000000000000 >
b110000000000000 \
b10111 N
b11000 ^
b101110000000000 6
b101110000000000 A
b101110000000000 F
1.
#48
0.
#49
b110010000000000 ;
b110010000000000 >
b110010000000000 \
b11000 N
b110000000000000 6
b110000000000000 A
b110000000000000 F
b11001 ^
1.
#50
0.
#51
b110100000000000 ;
b110100000000000 >
b110100000000000 \
b11001 N
b11010 ^
b110010000000000 6
b110010000000000 A
b110010000000000 F
1.
#52
0.
#53
b110110000000000 ;
b110110000000000 >
b110110000000000 \
b11010 N
b110100000000000 6
b110100000000000 A
b110100000000000 F
b11011 ^
1.
#54
0.
#55
b111000000000000 ;
b111000000000000 >
b111000000000000 \
b11011 N
b11100 ^
b110110000000000 6
b110110000000000 A
b110110000000000 F
1.
#56
0.
#57
b111010000000000 ;
b111010000000000 >
b111010000000000 \
b11100 N
b111000000000000 6
b111000000000000 A
b111000000000000 F
b11101 ^
1.
#58
0.
#59
b111100000000000 ;
b111100000000000 >
b111100000000000 \
b11101 N
b11110 ^
b111010000000000 6
b111010000000000 A
b111010000000000 F
1.
#60
0.
#61
b111110000000000 ;
b111110000000000 >
b111110000000000 \
b11110 N
b111100000000000 6
b111100000000000 A
b111100000000000 F
b11111 ^
1.
#62
0.
#63
b1000000000000000 ;
b1000000000000000 >
b1000000000000000 \
b11111 N
b100000 ^
b111110000000000 6
b111110000000000 A
b111110000000000 F
1.
#64
0.
#65
b1000010000000000 ;
b1000010000000000 >
b1000010000000000 \
b100000 N
b1000000000000000 6
b1000000000000000 A
b1000000000000000 F
b100001 ^
1.
#66
0.
#67
b1000100000000000 ;
b1000100000000000 >
b1000100000000000 \
b100001 N
b100010 ^
b1000010000000000 6
b1000010000000000 A
b1000010000000000 F
1.
#68
0.
#69
b1000110000000000 ;
b1000110000000000 >
b1000110000000000 \
b100010 N
b1000100000000000 6
b1000100000000000 A
b1000100000000000 F
b100011 ^
1.
#70
0.
#71
b1001000000000000 ;
b1001000000000000 >
b1001000000000000 \
b100011 N
b100100 ^
b1000110000000000 6
b1000110000000000 A
b1000110000000000 F
1.
#72
0.
#73
b1001010000000000 ;
b1001010000000000 >
b1001010000000000 \
b100100 N
b1001000000000000 6
b1001000000000000 A
b1001000000000000 F
b100101 ^
1.
#74
0.
#75
b1001100000000000 ;
b1001100000000000 >
b1001100000000000 \
b100101 N
b100110 ^
b1001010000000000 6
b1001010000000000 A
b1001010000000000 F
1.
#76
0.
#77
b1001110000000000 ;
b1001110000000000 >
b1001110000000000 \
b100110 N
b1001100000000000 6
b1001100000000000 A
b1001100000000000 F
b100111 ^
1.
#78
0.
#79
b1010000000000000 ;
b1010000000000000 >
b1010000000000000 \
b100111 N
b101000 ^
b1001110000000000 6
b1001110000000000 A
b1001110000000000 F
1.
#80
0.
#81
b1010010000000000 ;
b1010010000000000 >
b1010010000000000 \
b101000 N
b1010000000000000 6
b1010000000000000 A
b1010000000000000 F
b101001 ^
1.
#82
0.
#83
b1010100000000000 ;
b1010100000000000 >
b1010100000000000 \
b101001 N
b101010 ^
b1010010000000000 6
b1010010000000000 A
b1010010000000000 F
1.
#84
0.
#85
b1010110000000000 ;
b1010110000000000 >
b1010110000000000 \
b101010 N
b1010100000000000 6
b1010100000000000 A
b1010100000000000 F
b101011 ^
1.
#86
0.
#87
b1011000000000000 ;
b1011000000000000 >
b1011000000000000 \
b101011 N
b101100 ^
b1010110000000000 6
b1010110000000000 A
b1010110000000000 F
1.
#88
0.
#89
b1011010000000000 ;
b1011010000000000 >
b1011010000000000 \
b101100 N
b1011000000000000 6
b1011000000000000 A
b1011000000000000 F
b101101 ^
1.
#90
0.
#91
b1011100000000000 ;
b1011100000000000 >
b1011100000000000 \
b101101 N
b101110 ^
b1011010000000000 6
b1011010000000000 A
b1011010000000000 F
1.
#92
0.
#93
b1011110000000000 ;
b1011110000000000 >
b1011110000000000 \
b101110 N
b1011100000000000 6
b1011100000000000 A
b1011100000000000 F
b101111 ^
1.
#94
0.
#95
b1100000000000000 ;
b1100000000000000 >
b1100000000000000 \
b101111 N
b110000 ^
b1011110000000000 6
b1011110000000000 A
b1011110000000000 F
1.
#96
0.
#97
b1100010000000000 ;
b1100010000000000 >
b1100010000000000 \
b110000 N
b1100000000000000 6
b1100000000000000 A
b1100000000000000 F
b110001 ^
1.
#98
0.
#99
b1100100000000000 ;
b1100100000000000 >
b1100100000000000 \
b110001 N
b110010 ^
b1100010000000000 6
b1100010000000000 A
b1100010000000000 F
1.
#100
0.
#101
b1100110000000000 ;
b1100110000000000 >
b1100110000000000 \
b110010 N
b1100100000000000 6
b1100100000000000 A
b1100100000000000 F
b110011 ^
1.
#102
0.
#103
b1101000000000000 ;
b1101000000000000 >
b1101000000000000 \
b110011 N
b110100 ^
b1100110000000000 6
b1100110000000000 A
b1100110000000000 F
1.
#104
0.
#105
b1101010000000000 ;
b1101010000000000 >
b1101010000000000 \
b110100 N
b1101000000000000 6
b1101000000000000 A
b1101000000000000 F
b110101 ^
1.
#106
0.
#107
b1101100000000000 ;
b1101100000000000 >
b1101100000000000 \
b110101 N
b110110 ^
b1101010000000000 6
b1101010000000000 A
b1101010000000000 F
1.
#108
0.
#109
b1101110000000000 ;
b1101110000000000 >
b1101110000000000 \
b110110 N
b1101100000000000 6
b1101100000000000 A
b1101100000000000 F
b110111 ^
1.
#110
0.
#111
b1110000000000000 ;
b1110000000000000 >
b1110000000000000 \
b110111 N
b111000 ^
b1101110000000000 6
b1101110000000000 A
b1101110000000000 F
1.
#112
0.
#113
b1110010000000000 ;
b1110010000000000 >
b1110010000000000 \
b111000 N
b1110000000000000 6
b1110000000000000 A
b1110000000000000 F
b111001 ^
1.
#114
0.
#115
b1110100000000000 ;
b1110100000000000 >
b1110100000000000 \
b111001 N
b111010 ^
b1110010000000000 6
b1110010000000000 A
b1110010000000000 F
1.
#116
0.
#117
b1110110000000000 ;
b1110110000000000 >
b1110110000000000 \
b111010 N
b1110100000000000 6
b1110100000000000 A
b1110100000000000 F
b111011 ^
1.
#118
0.
#119
b1111000000000000 ;
b1111000000000000 >
b1111000000000000 \
b111011 N
b111100 ^
b1110110000000000 6
b1110110000000000 A
b1110110000000000 F
1.
#120
0.
#121
b1111010000000000 ;
b1111010000000000 >
b1111010000000000 \
b111100 N
b1111000000000000 6
b1111000000000000 A
b1111000000000000 F
b111101 ^
1.
#122
0.
#123
b1111100000000000 ;
b1111100000000000 >
b1111100000000000 \
b111101 N
b111110 ^
b1111010000000000 6
b1111010000000000 A
b1111010000000000 F
1.
#124
0.
#125
b1111110000000000 ;
b1111110000000000 >
b1111110000000000 \
b111110 N
b1111100000000000 6
b1111100000000000 A
b1111100000000000 F
b111111 ^
1.
#126
0.
#127
b10000000000000000 ;
b10000000000000000 >
b10000000000000000 \
b111111 N
b1000000 ^
b1111110000000000 6
b1111110000000000 A
b1111110000000000 F
1.
#128
0.
#129
b10000010000000000 ;
b10000010000000000 >
b10000010000000000 \
b1000000 N
b10000000000000000 6
b10000000000000000 A
b10000000000000000 F
b1000001 ^
1.
#130
0.
#131
b10000100000000000 ;
b10000100000000000 >
b10000100000000000 \
b1000001 N
b1000010 ^
b10000010000000000 6
b10000010000000000 A
b10000010000000000 F
1.
#132
0.
#133
b10000110000000000 ;
b10000110000000000 >
b10000110000000000 \
b1000010 N
b10000100000000000 6
b10000100000000000 A
b10000100000000000 F
b1000011 ^
1.
#134
0.
#135
b10001000000000000 ;
b10001000000000000 >
b10001000000000000 \
b1000011 N
b1000100 ^
b10000110000000000 6
b10000110000000000 A
b10000110000000000 F
1.
#136
0.
#137
b10001010000000000 ;
b10001010000000000 >
b10001010000000000 \
b1000100 N
b10001000000000000 6
b10001000000000000 A
b10001000000000000 F
b1000101 ^
1.
#138
0.
#139
b10001100000000000 ;
b10001100000000000 >
b10001100000000000 \
b1000101 N
b1000110 ^
b10001010000000000 6
b10001010000000000 A
b10001010000000000 F
1.
#140
0.
#141
b10001110000000000 ;
b10001110000000000 >
b10001110000000000 \
b1000110 N
b10001100000000000 6
b10001100000000000 A
b10001100000000000 F
b1000111 ^
1.
#142
0.
#143
b10010000000000000 ;
b10010000000000000 >
b10010000000000000 \
b1000111 N
b1001000 ^
b10001110000000000 6
b10001110000000000 A
b10001110000000000 F
1.
#144
0.
#145
b10010010000000000 ;
b10010010000000000 >
b10010010000000000 \
b1001000 N
b10010000000000000 6
b10010000000000000 A
b10010000000000000 F
b1001001 ^
1.
#146
0.
#147
b10010100000000000 ;
b10010100000000000 >
b10010100000000000 \
b1001001 N
b1001010 ^
b10010010000000000 6
b10010010000000000 A
b10010010000000000 F
1.
#148
0.
#149
b10010110000000000 ;
b10010110000000000 >
b10010110000000000 \
b1001010 N
b10010100000000000 6
b10010100000000000 A
b10010100000000000 F
b1001011 ^
1.
#150
0.
#151
b10011000000000000 ;
b10011000000000000 >
b10011000000000000 \
b1001011 N
b1001100 ^
b10010110000000000 6
b10010110000000000 A
b10010110000000000 F
1.
#152
0.
#153
b10011010000000000 ;
b10011010000000000 >
b10011010000000000 \
b1001100 N
b10011000000000000 6
b10011000000000000 A
b10011000000000000 F
b1001101 ^
1.
#154
0.
#155
b10011100000000000 ;
b10011100000000000 >
b10011100000000000 \
b1001101 N
b1001110 ^
b10011010000000000 6
b10011010000000000 A
b10011010000000000 F
1.
#156
0.
#157
b10011110000000000 ;
b10011110000000000 >
b10011110000000000 \
b1001110 N
b10011100000000000 6
b10011100000000000 A
b10011100000000000 F
b1001111 ^
1.
#158
0.
#159
b10100000000000000 ;
b10100000000000000 >
b10100000000000000 \
b1001111 N
b1010000 ^
b10011110000000000 6
b10011110000000000 A
b10011110000000000 F
1.
#160
0.
#161
b10100010000000000 ;
b10100010000000000 >
b10100010000000000 \
b1010000 N
b10100000000000000 6
b10100000000000000 A
b10100000000000000 F
b1010001 ^
1.
#162
0.
#163
b10100100000000000 ;
b10100100000000000 >
b10100100000000000 \
b1010001 N
b1010010 ^
b10100010000000000 6
b10100010000000000 A
b10100010000000000 F
1.
#164
0.
#165
b10100110000000000 ;
b10100110000000000 >
b10100110000000000 \
b1010010 N
b10100100000000000 6
b10100100000000000 A
b10100100000000000 F
b1010011 ^
1.
#166
0.
#167
b10101000000000000 ;
b10101000000000000 >
b10101000000000000 \
b1010011 N
b1010100 ^
b10100110000000000 6
b10100110000000000 A
b10100110000000000 F
1.
#168
0.
#169
b10101010000000000 ;
b10101010000000000 >
b10101010000000000 \
b1010100 N
b10101000000000000 6
b10101000000000000 A
b10101000000000000 F
b1010101 ^
1.
#170
0.
#171
b10101100000000000 ;
b10101100000000000 >
b10101100000000000 \
b1010101 N
b1010110 ^
b10101010000000000 6
b10101010000000000 A
b10101010000000000 F
1.
#172
0.
#173
b10101110000000000 ;
b10101110000000000 >
b10101110000000000 \
b1010110 N
b10101100000000000 6
b10101100000000000 A
b10101100000000000 F
b1010111 ^
1.
#174
0.
#175
b10110000000000000 ;
b10110000000000000 >
b10110000000000000 \
b1010111 N
b1011000 ^
b10101110000000000 6
b10101110000000000 A
b10101110000000000 F
1.
#176
0.
#177
b10110010000000000 ;
b10110010000000000 >
b10110010000000000 \
b1011000 N
b10110000000000000 6
b10110000000000000 A
b10110000000000000 F
b1011001 ^
1.
#178
0.
#179
b10110100000000000 ;
b10110100000000000 >
b10110100000000000 \
b1011001 N
b1011010 ^
b10110010000000000 6
b10110010000000000 A
b10110010000000000 F
1.
#180
0.
#181
b10110110000000000 ;
b10110110000000000 >
b10110110000000000 \
b1011010 N
b10110100000000000 6
b10110100000000000 A
b10110100000000000 F
b1011011 ^
1.
#182
0.
#183
b10111000000000000 ;
b10111000000000000 >
b10111000000000000 \
b1011011 N
b1011100 ^
b10110110000000000 6
b10110110000000000 A
b10110110000000000 F
1.
#184
0.
#185
b10111010000000000 ;
b10111010000000000 >
b10111010000000000 \
b1011100 N
b10111000000000000 6
b10111000000000000 A
b10111000000000000 F
b1011101 ^
1.
#186
0.
#187
b10111100000000000 ;
b10111100000000000 >
b10111100000000000 \
b1011101 N
b1011110 ^
b10111010000000000 6
b10111010000000000 A
b10111010000000000 F
1.
#188
0.
#189
b10111110000000000 ;
b10111110000000000 >
b10111110000000000 \
b1011110 N
b10111100000000000 6
b10111100000000000 A
b10111100000000000 F
b1011111 ^
1.
#190
0.
#191
b11000000000000000 ;
b11000000000000000 >
b11000000000000000 \
b1011111 N
b1100000 ^
b10111110000000000 6
b10111110000000000 A
b10111110000000000 F
1.
#192
0.
#193
b11000010000000000 ;
b11000010000000000 >
b11000010000000000 \
b1100000 N
b11000000000000000 6
b11000000000000000 A
b11000000000000000 F
b1100001 ^
1.
#194
0.
#195
b11000100000000000 ;
b11000100000000000 >
b11000100000000000 \
b1100001 N
b1100010 ^
b11000010000000000 6
b11000010000000000 A
b11000010000000000 F
1.
#196
0.
#197
b11000110000000000 ;
b11000110000000000 >
b11000110000000000 \
b1100010 N
b11000100000000000 6
b11000100000000000 A
b11000100000000000 F
b1100011 ^
1.
#198
0.
#199
b11001000000000000 ;
b11001000000000000 >
b11001000000000000 \
b1100011 N
b1100100 ^
b11000110000000000 6
b11000110000000000 A
b11000110000000000 F
1.
#200
0.
#201
b11001010000000000 ;
b11001010000000000 >
b11001010000000000 \
b1100100 N
b11001000000000000 6
b11001000000000000 A
b11001000000000000 F
b1100101 ^
1.
#202
0.
#203
b11001100000000000 ;
b11001100000000000 >
b11001100000000000 \
b1100101 N
b1100110 ^
b11001010000000000 6
b11001010000000000 A
b11001010000000000 F
1.
#204
0.
#205
b11001110000000000 ;
b11001110000000000 >
b11001110000000000 \
b1100110 N
b11001100000000000 6
b11001100000000000 A
b11001100000000000 F
b1100111 ^
1.
#206
0.
#207
b11010000000000000 ;
b11010000000000000 >
b11010000000000000 \
0#
b1100111 N
b1101000 ^
b11001110000000000 6
b11001110000000000 A
b11001110000000000 F
1.
#208
0.
#209
b11010010000000000 ;
b11010010000000000 >
b11010010000000000 \
b1101000 N
b11010000000000000 6
b11010000000000000 A
b11010000000000000 F
b1101001 ^
1.
#210
0.
#211
b11010100000000000 ;
b11010100000000000 >
b11010100000000000 \
b1101001 N
b1101010 ^
b11010010000000000 6
b11010010000000000 A
b11010010000000000 F
1.
#212
0.
#213
b11010110000000000 ;
b11010110000000000 >
b11010110000000000 \
b1101010 N
b11010100000000000 6
b11010100000000000 A
b11010100000000000 F
b1101011 ^
1.
#214
0.
#215
b11011000000000000 ;
b11011000000000000 >
b11011000000000000 \
b1101011 N
b1101100 ^
b11010110000000000 6
b11010110000000000 A
b11010110000000000 F
1.
#216
0.
#217
b11011010000000000 ;
b11011010000000000 >
b11011010000000000 \
b1101100 N
b11011000000000000 6
b11011000000000000 A
b11011000000000000 F
b1101101 ^
1.
#218
0.
#219
b11011100000000000 ;
b11011100000000000 >
b11011100000000000 \
b1101101 N
b1101110 ^
b11011010000000000 6
b11011010000000000 A
b11011010000000000 F
1.
#220
0.
#221
b11011110000000000 ;
b11011110000000000 >
b11011110000000000 \
b1101110 N
b11011100000000000 6
b11011100000000000 A
b11011100000000000 F
b1101111 ^
1.
#222
0.
#223
b11100000000000000 ;
b11100000000000000 >
b11100000000000000 \
b1101111 N
b1110000 ^
b11011110000000000 6
b11011110000000000 A
b11011110000000000 F
1.
#224
0.
#225
b11100010000000000 ;
b11100010000000000 >
b11100010000000000 \
b1110000 N
b11100000000000000 6
b11100000000000000 A
b11100000000000000 F
b1110001 ^
1.
#226
0.
#227
b11100100000000000 ;
b11100100000000000 >
b11100100000000000 \
b1110001 N
b1110010 ^
b11100010000000000 6
b11100010000000000 A
b11100010000000000 F
1.
#228
0.
#229
b11100110000000000 ;
b11100110000000000 >
b11100110000000000 \
b1110010 N
b11100100000000000 6
b11100100000000000 A
b11100100000000000 F
b1110011 ^
1.
#230
0.
#231
b11101000000000000 ;
b11101000000000000 >
b11101000000000000 \
b1110011 N
b1110100 ^
b11100110000000000 6
b11100110000000000 A
b11100110000000000 F
1.
#232
0.
#233
b11101010000000000 ;
b11101010000000000 >
b11101010000000000 \
b1110100 N
b11101000000000000 6
b11101000000000000 A
b11101000000000000 F
b1110101 ^
1.
#234
0.
#235
b11101100000000000 ;
b11101100000000000 >
b11101100000000000 \
b1110101 N
b1110110 ^
b11101010000000000 6
b11101010000000000 A
b11101010000000000 F
1.
#236
0.
#237
b11101110000000000 ;
b11101110000000000 >
b11101110000000000 \
b1110110 N
b11101100000000000 6
b11101100000000000 A
b11101100000000000 F
b1110111 ^
1.
#238
0.
#239
b11110000000000000 ;
b11110000000000000 >
b11110000000000000 \
b1110111 N
b1111000 ^
b11101110000000000 6
b11101110000000000 A
b11101110000000000 F
1.
#240
0.
#241
b11110010000000000 ;
b11110010000000000 >
b11110010000000000 \
b1111000 N
b11110000000000000 6
b11110000000000000 A
b11110000000000000 F
b1111001 ^
1.
#242
0.
#243
b11110100000000000 ;
b11110100000000000 >
b11110100000000000 \
b1111001 N
b1111010 ^
b11110010000000000 6
b11110010000000000 A
b11110010000000000 F
1.
#244
0.
#245
b11110110000000000 ;
b11110110000000000 >
b11110110000000000 \
b1111010 N
b11110100000000000 6
b11110100000000000 A
b11110100000000000 F
b1111011 ^
1.
#246
0.
#247
b11111000000000000 ;
b11111000000000000 >
b11111000000000000 \
b1111011 N
b1111100 ^
b11110110000000000 6
b11110110000000000 A
b11110110000000000 F
1.
#248
0.
#249
b11111010000000000 ;
b11111010000000000 >
b11111010000000000 \
b1111100 N
b11111000000000000 6
b11111000000000000 A
b11111000000000000 F
b1111101 ^
1.
#250
0.
#251
b11111100000000000 ;
b11111100000000000 >
b11111100000000000 \
b1111101 N
b1111110 ^
b11111010000000000 6
b11111010000000000 A
b11111010000000000 F
1.
#252
0.
#253
b11111110000000000 ;
b11111110000000000 >
b11111110000000000 \
b1111110 N
b11111100000000000 6
b11111100000000000 A
b11111100000000000 F
b1111111 ^
1.
#254
0.
#255
b100000000000000000 ;
b100000000000000000 >
b100000000000000000 \
b1111111 N
b10000000 ^
b11111110000000000 6
b11111110000000000 A
b11111110000000000 F
1.
#256
0.
#257
b100000010000000000 ;
b100000010000000000 >
b100000010000000000 \
b10000000 N
b100000000000000000 6
b100000000000000000 A
b100000000000000000 F
b10000001 ^
1.
#258
0.
#259
b100000100000000000 ;
b100000100000000000 >
b100000100000000000 \
b10000001 N
b10000010 ^
b100000010000000000 6
b100000010000000000 A
b100000010000000000 F
1.
#260
0.
#261
b100000110000000000 ;
b100000110000000000 >
b100000110000000000 \
b10000010 N
b100000100000000000 6
b100000100000000000 A
b100000100000000000 F
b10000011 ^
1.
#262
0.
#263
b100001000000000000 ;
b100001000000000000 >
b100001000000000000 \
b10000011 N
b10000100 ^
b100000110000000000 6
b100000110000000000 A
b100000110000000000 F
1.
#264
0.
#265
b100001010000000000 ;
b100001010000000000 >
b100001010000000000 \
b10000100 N
b100001000000000000 6
b100001000000000000 A
b100001000000000000 F
b10000101 ^
1.
#266
0.
#267
b100001100000000000 ;
b100001100000000000 >
b100001100000000000 \
b10000101 N
b10000110 ^
b100001010000000000 6
b100001010000000000 A
b100001010000000000 F
1.
#268
0.
#269
b100001110000000000 ;
b100001110000000000 >
b100001110000000000 \
b10000110 N
b100001100000000000 6
b100001100000000000 A
b100001100000000000 F
b10000111 ^
1.
#270
0.
#271
b100010000000000000 ;
b100010000000000000 >
b100010000000000000 \
b10000111 N
b10001000 ^
b100001110000000000 6
b100001110000000000 A
b100001110000000000 F
1.
#272
0.
#273
b100010010000000000 ;
b100010010000000000 >
b100010010000000000 \
b10001000 N
b100010000000000000 6
b100010000000000000 A
b100010000000000000 F
b10001001 ^
1.
#274
0.
#275
b100010100000000000 ;
b100010100000000000 >
b100010100000000000 \
b10001001 N
b10001010 ^
b100010010000000000 6
b100010010000000000 A
b100010010000000000 F
1.
#276
0.
#277
b100010110000000000 ;
b100010110000000000 >
b100010110000000000 \
b10001010 N
b100010100000000000 6
b100010100000000000 A
b100010100000000000 F
b10001011 ^
1.
#278
0.
#279
b100011000000000000 ;
b100011000000000000 >
b100011000000000000 \
b10001011 N
b10001100 ^
b100010110000000000 6
b100010110000000000 A
b100010110000000000 F
1.
#280
0.
#281
b100011010000000000 ;
b100011010000000000 >
b100011010000000000 \
b10001100 N
b100011000000000000 6
b100011000000000000 A
b100011000000000000 F
b10001101 ^
1.
#282
0.
#283
b100011100000000000 ;
b100011100000000000 >
b100011100000000000 \
b10001101 N
b10001110 ^
b100011010000000000 6
b100011010000000000 A
b100011010000000000 F
1.
#284
0.
#285
b100011110000000000 ;
b100011110000000000 >
b100011110000000000 \
b10001110 N
b100011100000000000 6
b100011100000000000 A
b100011100000000000 F
b10001111 ^
1.
#286
0.
#287
b100100000000000000 ;
b100100000000000000 >
b100100000000000000 \
b10001111 N
b10010000 ^
b100011110000000000 6
b100011110000000000 A
b100011110000000000 F
1.
#288
0.
#289
b100100010000000000 ;
b100100010000000000 >
b100100010000000000 \
b10010000 N
b100100000000000000 6
b100100000000000000 A
b100100000000000000 F
b10010001 ^
1.
#290
0.
#291
b100100100000000000 ;
b100100100000000000 >
b100100100000000000 \
b10010001 N
b10010010 ^
b100100010000000000 6
b100100010000000000 A
b100100010000000000 F
1.
#292
0.
